<svg width="50" height="63" viewBox="0 0 50 63" fill="none" xmlns="http://www.w3.org/2000/svg">
<path fill-rule="evenodd" clip-rule="evenodd" d="M46.3425 31.5146C46.5648 32.3666 46.7754 33.1713 46.5327 33.7537C46.2823 34.3546 45.5514 34.7805 44.7777 35.2307C44.0497 35.6538 43.2965 36.0923 42.8548 36.7482C42.4093 37.4109 42.2879 38.2773 42.1705 39.1129C42.0482 39.9909 41.9317 40.8207 41.4755 41.2747C41.0202 41.7268 40.1874 41.8427 39.305 41.9644C38.4644 42.0813 37.5947 42.202 36.9278 42.6464C36.2687 43.0859 35.828 43.8355 35.4019 44.5599C34.9505 45.3298 34.5234 46.0572 33.9196 46.3064C33.3353 46.5479 32.5257 46.3392 31.6696 46.1161C30.8435 45.9026 29.9903 45.6766 29.1914 45.8379C28.4246 45.9886 27.7354 46.5073 27.0695 47.0106C26.3493 47.5534 25.6688 48.0654 25 48.0654C24.3302 48.0654 23.6508 47.5534 22.9305 47.0106C22.2637 46.5073 21.5745 45.9886 20.8076 45.8379C20.6203 45.8002 20.4291 45.7848 20.2359 45.7848C19.6098 45.7848 18.9614 45.9519 18.3304 46.1161C17.4743 46.3383 16.6667 46.5469 16.0794 46.3054C15.4757 46.0562 15.0485 45.3288 14.5952 44.559C14.1701 43.8345 13.7294 43.0859 13.0703 42.6444C12.4044 42.2011 11.5347 42.0803 10.6941 41.9644C9.8117 41.8417 8.97885 41.7268 8.52263 41.2737C8.06738 40.8197 7.9509 39.99 7.82762 39.1129C7.71114 38.2764 7.5898 37.4109 7.14329 36.7472C6.7026 36.0914 5.94934 35.6528 5.22133 35.2297C4.44769 34.7796 3.71677 34.3536 3.4673 33.7528C3.22366 33.1703 3.4343 32.3656 3.65659 31.5137C3.87208 30.6907 4.09436 29.8406 3.93711 29.0485C3.78569 28.2854 3.26346 27.5986 2.7587 26.936C2.21318 26.2202 1.69871 25.5431 1.69871 24.8775C1.69871 24.211 2.21415 23.5339 2.7587 22.8171C3.26346 22.1545 3.78569 21.4686 3.93711 20.7055C4.09436 19.9125 3.87208 19.0624 3.65659 18.2404C3.4343 17.3884 3.22463 16.5838 3.4673 16.0003C3.71774 15.3995 4.44769 14.9745 5.22133 14.5243C5.94934 14.1012 6.7026 13.6627 7.14426 13.0058C7.59077 12.3422 7.71211 11.4777 7.82859 10.6402C7.95187 9.76215 8.06738 8.9343 8.5236 8.4803C8.97982 8.02727 9.81267 7.91039 10.6941 7.78867C11.5356 7.67179 12.4054 7.55105 13.0713 7.10671C13.7304 6.66816 14.171 5.91954 14.5972 5.1941C15.0495 4.4252 15.4766 3.69783 16.0804 3.44861C16.6677 3.20712 17.4743 3.41577 18.3314 3.63891C19.1575 3.85142 20.0097 4.07455 20.8086 3.9171C21.5745 3.76545 22.2637 3.24673 22.9305 2.74443C23.6508 2.20156 24.3312 1.6896 25 1.6896C25.6688 1.6896 26.3493 2.20156 27.0695 2.74443C27.7354 3.24673 28.4246 3.76545 29.1924 3.9171C29.9864 4.07262 30.8435 3.85238 31.6696 3.63891C32.5257 3.41673 33.3363 3.20615 33.9196 3.44861C34.5234 3.69879 34.9515 4.4252 35.4029 5.19507C35.829 5.91954 36.2697 6.66913 36.9288 7.10767C37.5956 7.55201 38.4654 7.67276 39.306 7.78964C40.1883 7.91135 41.0212 8.02823 41.4764 8.48127C41.9327 8.93527 42.0482 9.76312 42.1714 10.6412C42.2889 11.4787 42.4093 12.3432 42.8558 13.0068C43.2974 13.6637 44.0507 14.1012 44.7787 14.5253C45.5523 14.9754 46.2823 15.4005 46.5327 16.0013C46.7754 16.5847 46.5648 17.3884 46.3425 18.2404C46.127 19.0624 45.9047 19.9125 46.0619 20.7055C46.2143 21.4686 46.7356 22.1545 47.2404 22.8171C47.7859 23.5339 48.3013 24.211 48.3013 24.8775C48.3013 25.5431 47.7859 26.2202 47.2404 26.9369C46.7366 27.5996 46.2143 28.2854 46.0619 29.0485C45.9047 29.8416 46.127 30.6916 46.3425 31.5146ZM45.0253 53.7211C45.1922 54.0109 45.1699 54.3702 44.9651 54.6368C44.7603 54.9025 44.4166 55.0184 44.0915 54.9324L35.5154 52.645L33.2178 61.1793C33.1305 61.5029 32.8587 61.7405 32.5267 61.784C32.1928 61.8265 31.8637 61.6642 31.6997 61.3821L25.4611 50.1132L26.2988 48.6827C26.7705 48.4421 27.2171 48.1108 27.6548 47.7804C28.2605 47.3235 28.8323 46.8927 29.3797 46.7855C29.9563 46.6696 30.7038 46.8638 31.425 47.0511C32.3976 47.3033 33.4042 47.5641 34.2904 47.198C35.1961 46.8251 35.7271 45.921 36.2406 45.0477C36.6279 44.388 36.9938 43.7649 37.4685 43.4481C37.7373 43.2694 38.0858 43.1622 38.4702 43.081L45.0253 53.7211ZM18.3023 61.3773C18.1363 61.6632 17.8354 61.8361 17.4753 61.784C17.1413 61.7405 16.8696 61.5039 16.7822 61.1793L14.4836 52.645L5.90955 54.9324C5.5834 55.0194 5.23977 54.9025 5.03496 54.6368C4.83014 54.3702 4.80685 54.0109 4.97186 53.7269L11.5288 43.081C11.9142 43.1622 12.2617 43.2694 12.5306 43.4481C13.0043 43.7649 13.3702 44.387 13.7575 45.0468C14.271 45.92 14.802 46.8241 15.7076 47.197C16.5939 47.5612 17.6014 47.3023 18.575 47.0511C19.2963 46.8638 20.0418 46.6696 20.6193 46.7855C21.1668 46.8927 21.7385 47.3235 22.3442 47.7804C23.1606 48.3958 24.0041 49.0314 25 49.0314C25.199 49.0314 25.3902 49.0005 25.5776 48.9551L18.3023 61.3773ZM48.015 27.5194C48.6323 26.707 49.272 25.8676 49.272 24.8775C49.272 23.8874 48.6323 23.046 48.015 22.2346C47.5558 21.6319 47.1229 21.0629 47.0152 20.5181C46.9006 19.9434 47.0938 19.2006 47.2821 18.4838C47.5354 17.515 47.7975 16.5142 47.4296 15.6323C47.054 14.7311 46.1464 14.2027 45.2689 13.6917C44.6059 13.3053 43.9798 12.9411 43.6624 12.4688C43.3401 11.9906 43.2392 11.27 43.1324 10.5079C42.9936 9.51197 42.849 8.4803 42.1627 7.79833C41.4774 7.1154 40.4417 6.97244 39.4399 6.83237C38.6741 6.72708 37.9499 6.62566 37.4694 6.30592C36.9948 5.99005 36.6288 5.36701 36.2415 4.70726C35.728 3.83403 35.1971 2.93086 34.2914 2.55606C33.4042 2.18996 32.3986 2.45077 31.425 2.70385C30.7038 2.89029 29.9573 3.08251 29.3797 2.96949C28.8323 2.86227 28.2605 2.43145 27.6548 1.97455C26.8385 1.35924 25.995 0.723633 25 0.723633C24.0051 0.723633 23.1606 1.35924 22.3442 1.97455C21.7395 2.43145 21.1668 2.86227 20.6203 2.96949C20.0418 3.08155 19.2963 2.88932 18.576 2.70385C17.6014 2.45077 16.5958 2.19093 15.7086 2.55606C14.803 2.92989 14.272 3.83306 13.7595 4.70629C13.3712 5.36604 13.0053 5.98909 12.5306 6.30496C12.0501 6.62469 11.3269 6.72612 10.5611 6.83237C9.55835 6.97147 8.5236 7.11443 7.83733 7.79737C7.15105 8.47934 7.00739 9.511 6.86761 10.5069C6.76084 11.2691 6.65989 11.9897 6.33762 12.4678C6.0202 12.9402 5.39411 13.3043 4.73113 13.6907C3.85363 14.2017 2.94604 14.7301 2.57039 15.6313C2.2025 16.5133 2.46458 17.515 2.71793 18.4828C2.90527 19.2006 3.09941 19.9434 2.98487 20.5181C2.87615 21.0629 2.44323 21.6328 1.98506 22.2346C1.36674 23.046 0.728027 23.8874 0.728027 24.8775C0.728027 25.8676 1.36674 26.707 1.98506 27.5184C2.44323 28.1212 2.87615 28.6911 2.98487 29.2359C3.09941 29.8107 2.90527 30.5525 2.71793 31.2702C2.46458 32.2391 2.2025 33.2408 2.57039 34.1227C2.94507 35.024 3.85363 35.5523 4.73113 36.0633C5.39411 36.4488 6.01923 36.8129 6.33665 37.2853C6.65891 37.7644 6.75987 38.484 6.86664 39.2462C7.00642 40.2431 7.15105 41.2737 7.83636 41.9567C8.52263 42.6386 9.55835 42.7826 10.5601 42.9217C10.7144 42.9429 10.8668 42.9651 11.0163 42.9883L4.55544 53.4796C4.28753 53.9394 4.32539 54.5093 4.6496 54.9305C4.9738 55.3507 5.51448 55.5361 6.03476 55.399L14.141 53.2372L16.3124 61.3039C16.4522 61.8178 16.8831 62.1945 17.4093 62.2621C17.4675 62.2708 17.5257 62.2747 17.584 62.2747C18.0528 62.2747 18.4896 62.0235 18.7216 61.6198L25.1757 50.5991L31.2774 61.6198C31.5114 62.0235 31.9482 62.2747 32.4161 62.2747C32.4714 62.2747 32.5286 62.2699 32.5879 62.2631C33.1169 62.1936 33.5488 61.8168 33.6867 61.3039L35.8591 53.2372L43.9662 55.399C44.4807 55.5352 45.0253 55.3526 45.3495 54.9305C45.6746 54.5093 45.7115 53.9394 45.4417 53.4738L38.9827 42.9883C39.1332 42.9651 39.2846 42.9429 39.4399 42.9217C40.4407 42.7826 41.4764 42.6396 42.1617 41.9576C42.848 41.2747 42.9926 40.2431 43.1324 39.2471C43.2392 38.485 43.3401 37.7654 43.6614 37.2862C43.9789 36.8139 44.6049 36.4497 45.2679 36.0643C46.1454 35.5543 47.054 35.0259 47.4296 34.1237C47.7975 33.2418 47.5354 32.2401 47.2821 31.2712C47.0938 30.5535 46.9006 29.8116 47.0142 29.2359C47.1229 28.6911 47.5558 28.1212 48.015 27.5194Z" fill="url(#paint0_linear)"/>
<path d="M46.5327 33.7546L47.2052 34.0321V34.032L46.5327 33.7546ZM44.7777 35.2315L45.1448 35.8571L45.1452 35.8569L44.7777 35.2315ZM42.8548 36.749L42.2501 36.3458L42.2498 36.3461L42.8548 36.749ZM42.1705 39.1137L41.4494 39.0134L41.4493 39.0142L42.1705 39.1137ZM41.4754 41.2755L41.9897 41.7884L41.9902 41.7878L41.4754 41.2755ZM39.305 41.9652L39.205 41.2476L39.2042 41.2477L39.305 41.9652ZM36.9278 42.6472L36.5227 42.0452L36.5225 42.0453L36.9278 42.6472ZM35.4019 44.5608L34.7735 44.1948L34.7731 44.1956L35.4019 44.5608ZM33.9196 46.3072L33.6407 45.638L33.6405 45.6381L33.9196 46.3072ZM31.6696 46.1169L31.854 45.416L31.8526 45.4157L31.6696 46.1169ZM29.1914 45.8387L29.3325 46.5495L29.3361 46.5487L29.1914 45.8387ZM27.0695 47.0114L27.509 47.5889L27.5098 47.5883L27.0695 47.0114ZM22.9305 47.0114L22.4906 47.5887L22.491 47.5889L22.9305 47.0114ZM20.8076 45.8387L20.6634 46.5488L20.6666 46.5495L20.8076 45.8387ZM18.3304 46.1169L18.5141 46.8179L18.5147 46.8178L18.3304 46.1169ZM16.0794 46.3063L15.8004 46.9754L15.8014 46.9758L16.0794 46.3063ZM14.5952 44.5598L13.9666 44.9251L13.9671 44.926L14.5952 44.5598ZM13.0703 42.6453L13.4768 42.0442L13.4752 42.0431L13.0703 42.6453ZM10.694 41.9652L10.5933 42.6827L10.5942 42.6828L10.694 41.9652ZM8.52262 41.2746L8.00728 41.7862L8.00839 41.7874L8.52262 41.2746ZM7.82761 39.1137L7.10648 39.2131L7.10661 39.2141L7.82761 39.1137ZM7.14327 36.7481L6.53808 37.1508L6.53834 37.1512L7.14327 36.7481ZM5.22132 35.2306L4.85385 35.8559L4.85417 35.8561L5.22132 35.2306ZM3.46729 33.7536L4.14013 33.4769L4.1394 33.4752L3.46729 33.7536ZM3.65657 31.5145L2.95208 31.3318L2.95192 31.3324L3.65657 31.5145ZM3.9371 29.0494L3.22288 29.1897H3.22289L3.9371 29.0494ZM2.75869 26.9368L3.33886 26.4991L3.33874 26.499L2.75869 26.9368ZM2.75869 22.818L2.17852 22.3803L2.17798 22.381L2.75869 22.818ZM3.9371 20.7064L4.65132 20.8467L4.65134 20.8466L3.9371 20.7064ZM3.65657 18.2412L2.95192 18.4233L2.95214 18.4241L3.65657 18.2412ZM3.46729 16.0012L2.79483 15.7235L2.79462 15.724L3.46729 16.0012ZM5.22132 14.5252L4.85417 13.8995L4.85385 13.8997L5.22132 14.5252ZM7.14424 13.0067L6.53931 12.6036L6.53919 12.6038L7.14424 13.0067ZM7.82858 10.641L7.10756 10.5408L7.10744 10.5417L7.82858 10.641ZM8.52359 8.48114L8.00936 7.96831L8.00881 7.96886L8.52359 8.48114ZM10.694 7.78951L10.7941 8.5071L10.7947 8.50703L10.694 7.78951ZM13.0712 7.10754L12.6666 6.50529L12.6658 6.50583L13.0712 7.10754ZM14.5972 5.19494L13.9689 4.82892L13.9686 4.82933L14.5972 5.19494ZM16.0804 3.44945L15.8024 2.77989L15.8014 2.78026L16.0804 3.44945ZM18.3314 3.63974L18.1472 4.34063L18.1492 4.34116L18.3314 3.63974ZM20.8086 3.91794L20.95 4.62861L20.9507 4.62848L20.8086 3.91794ZM22.9305 2.74526L23.3698 3.32292L23.37 3.32277L22.9305 2.74526ZM27.0695 2.74526L27.5093 2.16792L27.509 2.16774L27.0695 2.74526ZM29.1924 3.91794L29.0507 4.62855L29.0518 4.62877L29.1924 3.91794ZM31.6696 3.63974L31.8526 4.34095L31.8533 4.34077L31.6696 3.63974ZM33.9196 3.44945L33.6391 4.11796L33.6398 4.11825L33.9196 3.44945ZM35.4028 5.19591L34.774 5.56099L34.7745 5.56188L35.4028 5.19591ZM36.9288 7.10851L37.3338 6.50652L37.3334 6.50626L36.9288 7.10851ZM39.306 7.79048L39.2052 8.50797L39.206 8.50808L39.306 7.79048ZM42.1714 10.642L42.8925 10.5418V10.5417L42.1714 10.642ZM42.8558 13.0077L43.4608 12.6047L43.4607 12.6046L42.8558 13.0077ZM44.7787 14.5261L44.4109 15.1513L44.4112 15.1515L44.7787 14.5261ZM46.5327 16.0021L47.2054 15.725L47.2052 15.7245L46.5327 16.0021ZM46.3425 18.2412L47.0469 18.4241L47.0471 18.4233L46.3425 18.2412ZM46.0619 20.7064L45.3477 20.8466L45.3479 20.8476L46.0619 20.7064ZM47.2403 22.818L47.8207 22.3805L47.8205 22.3803L47.2403 22.818ZM47.2403 26.9378L46.66 26.5003L46.6598 26.5007L47.2403 26.9378ZM46.0619 29.0494L45.3479 28.9081L45.3477 28.9091L46.0619 29.0494ZM45.0252 53.7219L45.6568 53.3615L45.6515 53.3524L45.6459 53.3433L45.0252 53.7219ZM44.9651 54.6377L45.5426 55.0786L45.5434 55.0777L44.9651 54.6377ZM44.0914 54.9333L43.9029 55.633L43.9045 55.6334L44.0914 54.9333ZM35.5154 52.6459L35.7039 51.946L35.0007 51.7584L34.8122 52.4584L35.5154 52.6459ZM33.2178 61.1801L33.9209 61.368L33.921 61.3675L33.2178 61.1801ZM32.5267 61.7848L32.6191 62.5034L32.6216 62.503L32.5267 61.7848ZM31.6997 61.383L31.062 61.7326L31.0657 61.7392L31.0696 61.7458L31.6997 61.383ZM25.4611 50.1141L24.8321 49.7493L24.6243 50.104L24.8234 50.4637L25.4611 50.1141ZM26.2988 48.6835L25.9668 48.0387L25.7771 48.1354L25.6698 48.3186L26.2988 48.6835ZM27.6548 47.7813L27.215 47.2039H27.2149L27.6548 47.7813ZM29.3797 46.7863L29.5203 47.4971L29.5239 47.4964L29.3797 46.7863ZM31.425 47.052L31.241 47.7529L31.2414 47.753L31.425 47.052ZM34.2904 47.1988L34.0121 46.5293L34.0113 46.5297L34.2904 47.1988ZM36.2405 45.0486L36.8689 45.4144L36.8692 45.414L36.2405 45.0486ZM37.4685 43.4489L37.0641 42.8465L37.0629 42.8472L37.4685 43.4489ZM38.4702 43.0819L39.0909 42.7032L38.8221 42.267L38.3192 42.3732L38.4702 43.0819ZM18.3023 61.3782L17.6733 61.0133L17.6719 61.0157L18.3023 61.3782ZM17.4752 61.7848L17.5801 61.0678L17.5697 61.0664L17.4752 61.7848ZM16.7822 61.1801L17.4854 60.9926L17.4853 60.9925L16.7822 61.1801ZM14.4836 52.6459L15.1868 52.4583L14.9984 51.7584L14.2951 51.946L14.4836 52.6459ZM5.90953 54.9333L6.09789 55.633H6.09804L5.90953 54.9333ZM5.03495 54.6377L4.45658 55.0777L4.45736 55.0786L5.03495 54.6377ZM4.97185 53.7277L4.35115 53.3491L4.34627 53.357L4.34161 53.365L4.97185 53.7277ZM11.5288 43.0819L11.6795 42.3731L11.1767 42.2672L10.9082 42.7032L11.5288 43.0819ZM12.5306 43.4489L12.9367 42.8476L12.9349 42.8465L12.5306 43.4489ZM13.7575 45.0476L13.1289 45.413L13.1292 45.4134L13.7575 45.0476ZM15.7076 47.1978L15.4293 47.8673L15.4297 47.8674L15.7076 47.1978ZM18.575 47.052L18.7577 47.7533L18.759 47.7529L18.575 47.052ZM20.6193 46.7863L20.4753 47.4965L20.4787 47.4971L20.6193 46.7863ZM22.3442 47.7813L21.9044 48.3585L21.9047 48.3587L22.3442 47.7813ZM25.5776 48.9559L26.2066 49.3206L27.0685 47.8489L25.4053 48.2519L25.5776 48.9559ZM48.0149 22.2355L48.5953 21.7981L48.5951 21.7978L48.0149 22.2355ZM47.0151 20.519L47.7295 20.379L47.7293 20.378L47.0151 20.519ZM47.2821 18.4847L47.9864 18.6679L47.9866 18.6671L47.2821 18.4847ZM47.4296 15.6331L46.7571 15.9107L46.7572 15.9108L47.4296 15.6331ZM45.2689 13.6925L44.901 14.3177L44.9012 14.3178L45.2689 13.6925ZM43.6624 12.4696L44.2675 12.0669L44.267 12.066L43.6624 12.4696ZM43.1324 10.5087L42.4113 10.6082L42.4114 10.6087L43.1324 10.5087ZM42.1627 7.79917L41.6475 8.31108L41.6482 8.31181L42.1627 7.79917ZM39.4399 6.83321L39.5413 6.11578L39.5395 6.11555L39.4399 6.83321ZM37.4694 6.30676L37.0647 6.90899L37.4694 6.30676ZM36.2415 4.7081L36.8701 4.34265L36.8698 4.34219L36.2415 4.7081ZM34.2914 2.5569L34.571 1.88796L34.5703 1.88768L34.2914 2.5569ZM31.425 2.70469L31.608 3.40589L31.609 3.40564L31.425 2.70469ZM29.3797 2.97033L29.2392 3.68116L29.2393 3.68119L29.3797 2.97033ZM27.6548 1.97539L28.0946 1.39804L28.0944 1.39788L27.6548 1.97539ZM22.3442 1.97539L21.9047 1.39788L21.904 1.39838L22.3442 1.97539ZM20.6203 2.97033L20.7594 3.68146L20.7611 3.68112L20.6203 2.97033ZM18.576 2.70469L18.3922 3.40569L18.3936 3.40606L18.576 2.70469ZM15.7086 2.5569L15.4304 1.88742L15.4296 1.88771L15.7086 2.5569ZM13.7595 4.70713L14.3877 5.07325L14.3881 5.07251L13.7595 4.70713ZM12.5306 6.3058L12.9353 6.90802L12.5306 6.3058ZM10.5611 6.83321L10.6615 7.55075L10.6616 7.55074L10.5611 6.83321ZM7.83731 7.7982L8.35173 8.31084L8.3521 8.31048L7.83731 7.7982ZM6.8676 10.5077L6.14658 10.4075L6.14655 10.4077L6.8676 10.5077ZM6.3376 12.4686L5.73299 12.0651L5.73243 12.0659L6.3376 12.4686ZM4.73112 13.6916L5.09881 14.3168L5.09903 14.3167L4.73112 13.6916ZM2.57037 15.6322L3.24276 15.9099L3.24284 15.9097L2.57037 15.6322ZM2.71792 18.4837L3.42255 18.3015L3.42242 18.301L2.71792 18.4837ZM2.98486 20.519L3.69893 20.6601L3.69896 20.6599L2.98486 20.519ZM1.98505 22.2355L2.56513 22.6733L2.56534 22.673L1.98505 22.2355ZM1.98505 27.5193L2.56567 27.0822L2.56513 27.0815L1.98505 27.5193ZM2.98486 29.2368L3.69896 29.0958L3.69893 29.0956L2.98486 29.2368ZM2.71792 31.2711L3.42247 31.4535L3.42255 31.4532L2.71792 31.2711ZM2.57037 34.1236L3.24309 33.8466L3.24276 33.8457L2.57037 34.1236ZM4.73112 36.0642L4.36343 36.6894L4.36389 36.6897L4.73112 36.0642ZM6.33663 37.2861L5.73146 37.6888L5.73164 37.6891L6.33663 37.2861ZM6.86663 39.247L6.14558 39.347L6.1456 39.3471L6.86663 39.247ZM7.83634 41.9575L7.32119 42.4694L7.32193 42.4701L7.83634 41.9575ZM10.5601 42.9225L10.4595 43.64L10.4603 43.6401L10.5601 42.9225ZM11.0163 42.9891L11.6371 43.3677L12.2079 42.4407L11.1284 42.2733L11.0163 42.9891ZM4.55543 53.4804L3.9347 53.1019L3.93007 53.1094L3.92563 53.1171L4.55543 53.4804ZM4.64958 54.9313L4.07166 55.3719L4.07215 55.3725L4.64958 54.9313ZM6.03475 55.3998L6.22119 56.1001L6.2232 56.0996L6.03475 55.3998ZM14.1409 53.238L14.8442 53.0505L14.6558 52.3507L13.9525 52.5382L14.1409 53.238ZM16.3124 61.3047L15.6091 61.4921L15.6097 61.494L16.3124 61.3047ZM17.4092 62.263L17.5173 61.5465L17.5099 61.5454L17.5025 61.5445L17.4092 62.263ZM18.7216 61.6206L18.0926 61.2558L18.0896 61.261L18.7216 61.6206ZM25.1757 50.6L25.8133 50.2504L25.1935 49.1307L24.5467 50.2351L25.1757 50.6ZM31.2774 61.6206L30.6398 61.9702L30.6432 61.9764L30.6468 61.9824L31.2774 61.6206ZM32.5878 62.2639L32.6708 62.9838L32.6832 62.9821L32.5878 62.2639ZM33.6867 61.3047L32.9835 61.1171L32.9834 61.1175L33.6867 61.3047ZM35.8591 53.238L36.0475 52.5382L35.3443 52.3507L35.1559 53.0504L35.8591 53.238ZM43.9662 55.3998L43.7778 56.0996L43.7791 56.0999L43.9662 55.3998ZM45.3495 54.9313L44.7722 54.4899L44.771 54.4913L45.3495 54.9313ZM45.4417 53.4747L46.0723 53.1127L46.0675 53.1043L46.0623 53.096L45.4417 53.4747ZM38.9827 42.9891L38.8713 42.2732L37.7904 42.4397L38.3621 43.3677L38.9827 42.9891ZM39.4399 42.9225L39.5391 43.6402L39.5406 43.64L39.4399 42.9225ZM43.1324 39.248L43.8534 39.3482V39.348L43.1324 39.248ZM43.6614 37.2871L43.0563 36.8844L43.0559 36.885L43.6614 37.2871ZM45.2679 36.0651L44.9007 35.4396L45.2679 36.0651ZM47.4296 34.1245L46.7572 33.8467L46.757 33.8472L47.4296 34.1245ZM47.2821 31.272L47.9866 31.0896L47.9865 31.089L47.2821 31.272ZM47.0142 29.2368L46.3001 29.0956L46.2998 29.0972L47.0142 29.2368ZM45.6378 31.6975C45.7519 32.1349 45.847 32.503 45.8901 32.8302C45.9336 33.1604 45.9098 33.3579 45.8602 33.477L47.2052 34.032C47.3983 33.5686 47.3905 33.0727 47.3338 32.6419C47.2766 32.2083 47.1553 31.748 47.0471 31.3334L45.6378 31.6975ZM45.8602 33.4769C45.806 33.6072 45.6761 33.7697 45.4075 33.9753C45.1404 34.1798 44.8069 34.3753 44.4102 34.6061L45.1452 35.8569C45.5221 35.6376 45.941 35.395 46.2953 35.1237C46.6482 34.8535 47.009 34.5028 47.2052 34.0321L45.8602 33.4769ZM44.4106 34.6059C43.7186 35.008 42.8023 35.5257 42.2501 36.3458L43.4595 37.1523C43.7906 36.6607 44.3808 36.3011 45.1448 35.8571L44.4106 34.6059ZM42.2498 36.3461C41.6938 37.1728 41.5611 38.2194 41.4494 39.0134L42.8915 39.2141C43.0148 38.3368 43.1246 37.6505 43.4598 37.1518L42.2498 36.3461ZM41.4493 39.0142C41.3866 39.4644 41.3325 39.8434 41.2453 40.1648C41.1575 40.4884 41.0575 40.6669 40.9607 40.7632L41.9902 41.7878C42.3496 41.4301 42.5359 40.9667 42.651 40.5425C42.7667 40.116 42.832 39.641 42.8916 39.2132L41.4493 39.0142ZM40.9612 40.7627C40.865 40.8582 40.686 40.9575 40.3609 41.0448C40.0382 41.1313 39.6573 41.1852 39.205 41.2476L39.405 42.6828C39.835 42.6235 40.3118 42.5585 40.7399 42.4438C41.1656 42.3296 41.6307 42.1448 41.9897 41.7884L40.9612 40.7627ZM39.2042 41.2477C38.4051 41.3588 37.3545 41.491 36.5227 42.0452L37.3329 43.2492C37.8348 42.9147 38.5237 42.8053 39.4057 42.6827L39.2042 41.2477ZM36.5225 42.0453C35.6986 42.5947 35.1782 43.5068 34.7735 44.1948L36.0302 44.9267C36.4778 44.1658 36.8388 43.5786 37.333 43.249L36.5225 42.0453ZM34.7731 44.1956C34.5415 44.5904 34.3457 44.9221 34.1406 45.188C33.9344 45.455 33.7713 45.5841 33.6407 45.638L34.1986 46.9763C34.6717 46.781 35.0241 46.4219 35.2953 46.0705C35.5675 45.7178 35.8108 45.3009 36.0307 44.9258L34.7731 44.1956ZM33.6405 45.6381C33.5213 45.6874 33.3229 45.7112 32.9911 45.6679C32.6627 45.6252 32.2925 45.5304 31.854 45.416L31.4852 46.8177C31.9028 46.9266 32.3655 47.0477 32.802 47.1046C33.2351 47.1611 33.7336 47.1685 34.1988 46.9762L33.6405 45.6381ZM31.8526 45.4157C31.0707 45.2137 30.0423 44.9276 29.0467 45.1287L29.3361 46.5487C29.9383 46.4271 30.6164 46.5932 31.4866 46.8181L31.8526 45.4157ZM29.0504 45.128C28.0876 45.3172 27.2618 45.9564 26.6292 46.4344L27.5098 47.5883C28.209 47.0599 28.7616 46.6616 29.3325 46.5495L29.0504 45.128ZM26.63 46.4339C26.2607 46.7122 25.9491 46.9453 25.6538 47.1137C25.3578 47.2823 25.1511 47.3418 25 47.3418V48.7907C25.5177 48.7907 25.9855 48.5942 26.3772 48.3711C26.7693 48.1477 27.158 47.8534 27.509 47.5889L26.63 46.4339ZM25 47.3418C24.8483 47.3418 24.6415 47.2822 24.346 47.1137C24.0507 46.9454 23.7395 46.7123 23.37 46.4339L22.491 47.5889C22.8418 47.8533 23.2304 48.1477 23.6224 48.371C24.0141 48.5942 24.4819 48.7907 25 48.7907V47.3418ZM23.3704 46.4342C22.7372 45.9563 21.9114 45.3171 20.9487 45.128L20.6666 46.5495C21.2375 46.6616 21.79 47.0599 22.4906 47.5887L23.3704 46.4342ZM20.9519 45.1286C20.7082 45.0796 20.4677 45.0611 20.2359 45.0611V46.5101C20.3904 46.5101 20.5323 46.5224 20.6634 46.5488L20.9519 45.1286ZM20.2359 45.0611C19.4997 45.0611 18.7592 45.2565 18.1462 45.416L18.5147 46.8178C19.1636 46.6489 19.7198 46.5101 20.2359 46.5101V45.0611ZM18.1468 45.4158C17.7077 45.5298 17.3382 45.6244 17.0097 45.6671C16.6785 45.7102 16.4789 45.6867 16.3574 45.6367L15.8014 46.9758C16.2671 47.1673 16.765 47.1602 17.1985 47.1038C17.6346 47.0471 18.097 46.9262 18.5141 46.8179L18.1468 45.4158ZM16.3584 45.637C16.2277 45.5831 16.0646 45.454 15.8581 45.1867C15.6525 44.9206 15.4561 44.5888 15.2234 44.1935L13.9671 44.926C14.1876 45.3006 14.4315 45.7174 14.7037 46.0698C14.9751 46.421 15.3273 46.7802 15.8004 46.9754L16.3584 45.637ZM15.2238 44.1945C14.8194 43.5051 14.2997 42.5954 13.4768 42.0442L12.6638 43.2463C13.159 43.578 13.5208 44.1656 13.9666 44.9251L15.2238 44.1945ZM13.4752 42.0431C12.6442 41.4899 11.5937 41.3578 10.7939 41.2476L10.5942 42.6828C11.4756 42.8044 12.1645 42.9139 12.6654 43.2473L13.4752 42.0431ZM10.7948 41.2477C10.3418 41.1847 9.96108 41.1309 9.63793 41.0443C9.31274 40.9571 9.13359 40.8578 9.03685 40.7617L8.00839 41.7874C8.36787 42.1443 8.83326 42.3291 9.25912 42.4433C9.68705 42.558 10.1639 42.623 10.5933 42.6827L10.7948 41.2477ZM9.03794 40.7628C8.94131 40.6664 8.84134 40.4878 8.75347 40.1639C8.66618 39.8422 8.61185 39.4633 8.5486 39.0134L7.10661 39.2141C7.16664 39.6411 7.23219 40.1156 7.34778 40.5416C7.46277 40.9655 7.64867 41.4286 8.00729 41.7862L9.03794 40.7628ZM8.54873 39.0142C8.43789 38.2183 8.30524 37.1728 7.7482 36.345L6.53834 37.1512C6.87434 37.6505 6.98436 38.3361 7.10648 39.2131L8.54873 39.0142ZM7.74847 36.3454C7.19709 35.5248 6.28022 35.0069 5.58846 34.6049L4.85417 35.8561C5.61844 36.3003 6.20808 36.6596 6.53808 37.1508L7.74847 36.3454ZM5.58878 34.6051C5.19206 34.3743 4.85869 34.1788 4.59173 33.9744C4.32338 33.769 4.19395 33.6066 4.14013 33.4769L2.79445 34.0302C2.99009 34.5014 3.35085 34.8525 3.70375 35.1227C4.05803 35.394 4.47694 35.6366 4.85385 35.8559L5.58878 34.6051ZM4.1394 33.4752C4.08966 33.3563 4.06572 33.159 4.10908 32.829C4.15206 32.5019 4.2471 32.134 4.36122 31.6966L2.95192 31.3324C2.84376 31.747 2.72234 32.2074 2.66534 32.6412C2.60872 33.0721 2.60127 33.5684 2.79518 34.032L4.1394 33.4752ZM4.36107 31.6972C4.5663 30.9133 4.84685 29.8938 4.65131 28.9089L3.22289 29.1897C3.34187 29.789 3.17783 30.4696 2.95208 31.3318L4.36107 31.6972ZM4.65132 28.909C4.4612 27.9509 3.81781 27.1279 3.33886 26.4991L2.17852 27.3744C2.70908 28.0709 3.11014 28.6215 3.22288 29.1897L4.65132 28.909ZM3.33874 26.499C3.05918 26.1322 2.82493 25.8224 2.65585 25.5286C2.48651 25.2344 2.42671 25.0287 2.42671 24.8783H0.970685C0.970685 25.3935 1.16812 25.8591 1.39239 26.2488C1.61693 26.6389 1.91267 27.0256 2.17864 27.3746L3.33874 26.499ZM2.42671 24.8783C2.42671 24.7276 2.48666 24.5216 2.65623 24.227C2.82561 23.9327 3.05989 23.6228 3.3394 23.2549L2.17798 22.381C1.91293 22.7299 1.61722 23.1168 1.39274 23.507C1.16845 23.8966 0.970685 24.3625 0.970685 24.8783H2.42671ZM3.33886 23.2555C3.81753 22.6272 4.46118 21.8049 4.65132 20.8467L3.22288 20.566C3.11016 21.134 2.70936 21.6834 2.17852 22.3803L3.33886 23.2555ZM4.65134 20.8466C4.84681 19.8608 4.56634 18.8416 4.36101 18.0584L2.95214 18.4241C3.17779 19.2849 3.34189 19.9658 3.22286 20.5661L4.65134 20.8466ZM4.36122 18.0591C4.24719 17.6221 4.15235 17.254 4.10947 16.9268C4.06623 16.5968 4.08997 16.3984 4.13995 16.2782L2.79462 15.724C2.60193 16.1873 2.60917 16.683 2.66567 17.1141C2.72253 17.5482 2.84366 18.0083 2.95192 18.4233L4.36122 18.0591ZM4.13975 16.2787C4.19402 16.1485 4.32378 15.9861 4.59191 15.7809C4.85881 15.5766 5.19195 15.3815 5.58878 15.1505L4.85385 13.8997C4.47704 14.119 4.05839 14.3613 3.70429 14.6324C3.35143 14.9024 2.99099 15.2529 2.79483 15.7235L4.13975 16.2787ZM5.58846 15.1507C6.28043 14.7486 7.19702 14.2309 7.7493 13.4096L6.53919 12.6038C6.20814 13.0961 5.61823 13.4556 4.85417 13.8995L5.58846 15.1507ZM7.74918 13.4098C8.3062 12.5819 8.43883 11.5376 8.54972 10.7403L7.10744 10.5417C6.98536 11.4194 6.87532 12.1042 6.53931 12.6036L7.74918 13.4098ZM8.54959 10.7413C8.61287 10.2905 8.66695 9.91204 8.75408 9.59086C8.84172 9.26784 8.94153 9.08979 9.03837 8.99342L8.00881 7.96886C7.64943 8.32648 7.46337 8.78935 7.34838 9.21324C7.23288 9.63896 7.16756 10.1135 7.10756 10.5408L8.54959 10.7413ZM9.03783 8.99396C9.13496 8.8975 9.31464 8.79786 9.63949 8.71041C9.96205 8.62356 10.3427 8.56945 10.7941 8.5071L10.594 7.07192C10.164 7.13128 9.68754 7.19646 9.25927 7.31175C8.8333 7.42642 8.36843 7.61174 8.00936 7.96831L9.03783 8.99396ZM10.7947 8.50703C11.5946 8.39592 12.6457 8.26378 13.4767 7.70926L12.6658 6.50583C12.165 6.83999 11.4766 6.94934 10.5934 7.072L10.7947 8.50703ZM13.4759 7.70979C14.3003 7.16122 14.8206 6.25008 15.2257 5.56055L13.9686 4.82933C13.5215 5.59068 13.1604 6.17677 12.6666 6.50529L13.4759 7.70979ZM15.2254 5.56095C15.4576 5.16626 15.6538 4.83472 15.8592 4.56885C16.0655 4.30173 16.2287 4.17256 16.3593 4.11864L15.8014 2.78026C15.3283 2.97556 14.976 3.33468 14.7048 3.68576C14.4326 4.03811 14.1891 4.4547 13.9689 4.82892L15.2254 5.56095ZM16.3584 4.119C16.4799 4.06904 16.6793 4.04552 17.0101 4.08868C17.3383 4.1315 17.7078 4.22625 18.1472 4.34063L18.5156 2.93886C18.0978 2.83009 17.6355 2.70895 17.1993 2.65204C16.7657 2.59546 16.2681 2.58837 15.8024 2.77989L16.3584 4.119ZM18.1492 4.34116C18.9331 4.54284 19.9572 4.82429 20.95 4.62861L20.6672 3.20727C20.0622 3.32649 19.3818 3.16167 18.5136 2.93833L18.1492 4.34116ZM20.9507 4.62848C21.9116 4.43821 22.7372 3.79946 23.3698 3.32292L22.4912 2.16761C21.79 2.69566 21.2373 3.09436 20.6665 3.2074L20.9507 4.62848ZM23.37 3.32277C23.7393 3.04446 24.0509 2.81131 24.3462 2.64299C24.6422 2.4744 24.8489 2.4149 25 2.4149V0.965963C24.4823 0.965963 24.0144 1.16244 23.6228 1.38556C23.2307 1.60894 22.842 1.9032 22.491 2.16774L23.37 3.32277ZM25 2.4149C25.1511 2.4149 25.3578 2.4744 25.6538 2.64299C25.9491 2.81131 26.2607 3.04446 26.63 3.32277L27.509 2.16774C27.158 1.9032 26.7693 1.60894 26.3772 1.38556C25.9855 1.16244 25.5177 0.965963 25 0.965963V2.4149ZM26.6297 3.32261C27.2621 3.79959 28.0876 4.43831 29.0507 4.62855L29.3341 3.20733C28.7616 3.09425 28.2087 2.69554 27.5093 2.16792L26.6297 3.32261ZM29.0518 4.62877C30.0388 4.82209 31.0653 4.54438 31.8526 4.34095L31.4866 2.93853C30.6217 3.16205 29.934 3.32482 29.3329 3.20711L29.0518 4.62877ZM31.8533 4.34077C32.2927 4.22675 32.663 4.13172 32.9918 4.08863C33.3241 4.04512 33.5215 4.06909 33.6391 4.11796L34.2002 2.78094C33.7344 2.58735 33.2348 2.59538 32.8019 2.65209C32.3657 2.70922 31.9026 2.83057 31.4859 2.93872L31.8533 4.34077ZM33.6398 4.11825C33.7713 4.17276 33.9351 4.3026 34.1413 4.56948C34.3465 4.83503 34.5428 5.16665 34.774 5.56099L36.0316 4.83081C35.8115 4.45529 35.568 4.03877 35.2955 3.68611C35.0239 3.33477 34.6717 2.97632 34.1995 2.78064L33.6398 4.11825ZM34.7745 5.56188C35.1791 6.2497 35.6997 7.16217 36.5241 7.71076L37.3334 6.50626C36.8396 6.17775 36.4788 5.59105 36.0312 4.82993L34.7745 5.56188ZM36.5237 7.7105C37.3555 8.26469 38.406 8.39686 39.2052 8.50797L39.4067 7.07297C38.5247 6.95033 37.8358 6.84101 37.3338 6.50652L36.5237 7.7105ZM39.206 8.50808C39.6579 8.57042 40.0387 8.62455 40.3612 8.71138C40.6861 8.79883 40.8652 8.89838 40.9617 8.99438L41.9912 7.96983C41.6324 7.61279 41.1674 7.42738 40.7415 7.31271C40.3131 7.19742 39.8363 7.13223 39.4059 7.07287L39.206 8.50808ZM40.9617 8.99438C41.0584 9.09076 41.1583 9.2688 41.2459 9.59182C41.333 9.913 41.3871 10.2915 41.4504 10.7423L42.8925 10.5417C42.8325 10.1145 42.7671 9.63993 42.6516 9.21421C42.5366 8.79031 42.3506 8.32745 41.9912 7.96983L40.9617 8.99438ZM41.4504 10.7421C41.562 11.5377 41.6937 12.5828 42.2508 13.4107L43.4607 12.6046C43.1247 12.1052 43.0157 11.4212 42.8925 10.5418L41.4504 10.7421ZM42.2507 13.4106C42.803 14.2319 43.7202 14.749 44.4109 15.1513L45.1465 13.9009C44.3812 13.4552 43.7919 13.0971 43.4608 12.6047L42.2507 13.4106ZM44.4112 15.1515C44.8081 15.3825 45.1412 15.5776 45.4081 15.7819C45.6762 15.9871 45.806 16.1494 45.8602 16.2797L47.2052 15.7245C47.009 15.2539 46.6486 14.9033 46.2957 14.6334C45.9416 14.3623 45.523 14.12 45.1462 13.9007L44.4112 15.1515ZM45.86 16.2792C45.9099 16.399 45.9336 16.597 45.8901 16.9267C45.847 17.2539 45.752 17.6217 45.6378 18.0591L47.0471 18.4233C47.1552 18.0088 47.2766 17.5487 47.3338 17.1151C47.3905 16.6843 47.3982 16.1886 47.2054 15.725L45.86 16.2792ZM45.638 18.0584C45.4327 18.8416 45.1522 19.8608 45.3477 20.8466L46.7762 20.5661C46.6572 19.9658 46.8212 19.2849 47.0469 18.4241L45.638 18.0584ZM45.3479 20.8476C45.5391 21.8049 46.1809 22.6264 46.6602 23.2555L47.8205 22.3803C47.2902 21.6841 46.8895 21.134 46.776 20.5651L45.3479 20.8476ZM46.66 23.2553C46.9398 23.6231 47.1743 23.933 47.3437 24.2272C47.5134 24.5217 47.5733 24.7276 47.5733 24.8783H49.0293C49.0293 24.3625 48.8315 23.8966 48.6071 23.5068C48.3824 23.1165 48.0864 22.7296 47.8207 22.3805L46.66 23.2553ZM47.5733 24.8783C47.5733 25.0284 47.5135 25.2339 47.3438 25.5285C47.1743 25.8227 46.9398 26.1326 46.66 26.5003L47.8207 27.3752C48.0864 27.0261 48.3824 26.6392 48.607 26.2491C48.8314 25.8596 49.0293 25.3938 49.0293 24.8783H47.5733ZM46.6598 26.5007C46.1823 27.1286 45.5391 27.9507 45.3479 28.9081L46.776 29.1906C46.8895 28.6217 47.2908 28.0721 47.8209 27.3749L46.6598 26.5007ZM45.3477 28.9091C45.1522 29.8949 45.4327 30.9142 45.6379 31.6981L47.047 31.3328C46.8212 30.4708 46.6572 29.79 46.7762 29.1896L45.3477 28.9091ZM44.3936 54.0822C44.4158 54.1207 44.4122 54.1644 44.3867 54.1976L45.5434 55.0777C45.9275 54.5776 45.9686 53.9027 45.6568 53.3615L44.3936 54.0822ZM44.3875 54.1966C44.3622 54.2295 44.3204 54.2441 44.2784 54.233L43.9045 55.6334C44.5128 55.7942 45.1583 55.5771 45.5426 55.0786L44.3875 54.1966ZM44.2799 54.2334L35.7039 51.946L35.3269 53.3456L43.9029 55.633L44.2799 54.2334ZM34.8122 52.4584L32.5146 60.9926L33.921 61.3675L36.2186 52.8333L34.8122 52.4584ZM32.5148 60.9921C32.5033 61.0346 32.4701 61.0615 32.4318 61.0665L32.6216 62.503C33.2471 62.4212 33.7576 61.9728 33.9209 61.368L32.5148 60.9921ZM32.4343 61.0661C32.4133 61.0688 32.3908 61.0653 32.37 61.0551C32.349 61.0448 32.3362 61.0311 32.3297 61.0201L31.0696 61.7458C31.3825 62.284 31.9984 62.5824 32.619 62.5034L32.4343 61.0661ZM32.3373 61.0334L26.0987 49.7645L24.8234 50.4637L31.062 61.7326L32.3373 61.0334ZM26.0901 50.4788L26.9278 49.0482L25.6698 48.3186L24.8321 49.7493L26.0901 50.4788ZM26.6308 49.3282C27.1677 49.0544 27.6626 48.6846 28.0947 48.3585L27.2149 47.2039C26.7715 47.5385 26.3733 47.8314 25.9668 48.0387L26.6308 49.3282ZM28.0946 48.3585C28.4036 48.1255 28.6707 47.9248 28.9245 47.7673C29.18 47.6087 29.3725 47.5261 29.5203 47.4971L29.2392 46.0755C28.8395 46.1537 28.4724 46.3402 28.1538 46.538C27.8333 46.7369 27.5117 46.9801 27.215 47.2039L28.0946 48.3585ZM29.5239 47.4964C29.6855 47.464 29.9152 47.4684 30.2293 47.5201C30.5395 47.5712 30.8735 47.6574 31.241 47.7529L31.6089 46.351C31.2552 46.259 30.8549 46.1545 30.4669 46.0907C30.0829 46.0274 29.6506 45.9927 29.2356 46.0762L29.5239 47.4964ZM31.2414 47.753C32.1505 47.9887 33.4152 48.3447 34.5695 47.8678L34.0113 46.5297C33.3932 46.785 32.6446 46.6194 31.6084 46.3509L31.2414 47.753ZM34.5687 47.8682C35.7427 47.3849 36.388 46.2322 36.8689 45.4144L35.6122 44.6827C35.0661 45.6113 34.6495 46.2669 34.0121 46.5293L34.5687 47.8682ZM36.8692 45.414C37.0667 45.0774 37.238 44.7868 37.4143 44.541C37.5915 44.2938 37.7417 44.1388 37.874 44.0505L37.0629 42.8472C36.7205 43.0758 36.4504 43.3908 36.2291 43.6993C36.007 44.0091 35.8017 44.3599 35.6119 44.6831L36.8692 45.414ZM37.8727 44.0513C38.0234 43.9512 38.2608 43.8666 38.6212 43.7905L38.3192 42.3732C37.9108 42.4593 37.4513 42.5891 37.0642 42.8465L37.8727 44.0513ZM37.8495 43.4605L44.4046 54.1006L45.6459 53.3433L39.0909 42.7032L37.8495 43.4605ZM17.6719 61.0157C17.6524 61.0493 17.6341 61.0611 17.6276 61.0645C17.624 61.0663 17.6202 61.0677 17.6148 61.0686C17.6095 61.0694 17.5985 61.0705 17.5801 61.0679L17.3704 62.5017C18.0544 62.6008 18.6328 62.257 18.9326 61.7405L17.6719 61.0157ZM17.5697 61.0664C17.528 61.061 17.4965 61.0339 17.4854 60.9926L16.0789 61.3675C16.2426 61.9754 16.7547 62.4216 17.3808 62.5031L17.5697 61.0664ZM17.4853 60.9925L15.1868 52.4583L13.7804 52.8334L16.079 61.3676L17.4853 60.9925ZM14.2951 51.946L5.72102 54.2334L6.09804 55.633L14.6721 53.3456L14.2951 51.946ZM5.72116 54.2334C5.68016 54.2443 5.63857 54.2304 5.61253 54.1966L4.45736 55.0786C4.84094 55.5761 5.48661 55.796 6.09789 55.633L5.72116 54.2334ZM5.61331 54.1976C5.58472 54.1604 5.58629 54.1175 5.60209 54.0904L4.34161 53.365C4.02736 53.9059 4.07553 54.5816 4.45658 55.0777L5.61331 54.1976ZM5.59255 54.1063L12.1495 43.4604L10.9082 42.7032L4.35115 53.3491L5.59255 54.1063ZM11.3781 43.7906C11.7388 43.8665 11.9754 43.9511 12.1263 44.0513L12.9349 42.8465C12.548 42.5892 12.0895 42.4594 11.6795 42.3731L11.3781 43.7906ZM12.1244 44.0502C12.2567 44.1386 12.4068 44.2936 12.5839 44.5406C12.7601 44.7862 12.9315 45.0766 13.1289 45.413L14.3861 44.6821C14.1963 44.3588 13.991 44.0082 13.769 43.6987C13.5479 43.3905 13.2781 43.076 12.9367 42.8476L12.1244 44.0502ZM13.1292 45.4134C13.6101 46.2312 14.2554 47.3839 15.4293 47.8673L15.9859 46.5283C15.3486 46.266 14.932 45.6104 14.3858 44.6817L13.1292 45.4134ZM15.4297 47.8674C16.5829 48.3412 17.8468 47.9882 18.7577 47.7533L18.3924 46.3506C17.356 46.618 16.6048 46.7827 15.9854 46.5281L15.4297 47.8674ZM18.759 47.7529C19.1267 47.6573 19.4601 47.5712 19.7699 47.5201C20.0835 47.4684 20.313 47.4639 20.4753 47.4965L20.7633 46.0762C20.348 45.9928 19.916 46.0274 19.532 46.0907C19.1445 46.1545 18.7446 46.2591 18.3911 46.351L18.759 47.7529ZM20.4787 47.4971C20.6266 47.5261 20.8191 47.6087 21.0746 47.7673C21.3283 47.9248 21.5954 48.1255 21.9044 48.3585L22.784 47.2039C22.4873 46.9801 22.1657 46.7369 21.8453 46.538C21.5266 46.3402 21.1595 46.1537 20.7599 46.0755L20.4787 47.4971ZM21.9047 48.3587C22.6715 48.9368 23.7149 49.7567 25 49.7567V48.3077C24.2932 48.3077 23.6496 47.8563 22.7837 47.2037L21.9047 48.3587ZM25 49.7567C25.2748 49.7567 25.5264 49.7139 25.7499 49.6598L25.4053 48.2519C25.2539 48.2886 25.1232 48.3077 25 48.3077V49.7567ZM24.9486 48.591L17.6733 61.0133L18.9313 61.7429L26.2066 49.3206L24.9486 48.591ZM48.5956 27.9573C49.1747 27.1952 50 26.1563 50 24.8783H48.544C48.544 25.5806 48.0899 26.2205 47.4343 27.0833L48.5956 27.9573ZM50 24.8783C50 23.6005 49.1751 22.5601 48.5953 21.7981L47.4346 22.6728C48.0895 23.5335 48.544 24.1759 48.544 24.8783H50ZM48.5951 21.7978C48.3609 21.4903 48.1592 21.2245 48.001 20.972C47.8416 20.7178 47.7586 20.5262 47.7295 20.379L46.3008 20.6588C46.3794 21.0564 46.5668 21.4218 46.7656 21.7389C46.9655 22.0578 47.2099 22.3779 47.4348 22.6731L48.5951 21.7978ZM47.7293 20.378C47.6968 20.2151 47.7016 19.9852 47.7533 19.6729C47.8044 19.3644 47.8907 19.0323 47.9864 18.6679L46.5778 18.3014C46.4852 18.6537 46.3806 19.0513 46.3167 19.4372C46.2534 19.8192 46.219 20.2481 46.301 20.6599L47.7293 20.378ZM47.9866 18.6671C48.2234 17.7618 48.5812 16.5041 48.102 15.3553L46.7572 15.9108C47.0138 16.526 46.8475 17.2698 46.5776 18.3022L47.9866 18.6671ZM48.1021 15.3555C47.6154 14.188 46.4588 13.5461 45.6366 13.0673L44.9012 14.3178C45.8339 14.8609 46.4925 15.2757 46.7571 15.9107L48.1021 15.3555ZM45.6368 13.0673C45.2983 12.8701 45.0063 12.6994 44.7593 12.5238C44.5109 12.3472 44.3558 12.1981 44.2675 12.0669L43.0573 12.8723C43.2865 13.2135 43.6031 13.4825 43.9128 13.7028C44.2239 13.9239 44.5765 14.1286 44.901 14.3177L45.6368 13.0673ZM44.267 12.066C44.1764 11.9315 44.0956 11.7285 44.0254 11.4304C43.9556 11.1337 43.9079 10.7975 43.8534 10.4086L42.4114 10.6087C42.4637 10.982 42.5198 11.3873 42.6077 11.7608C42.6953 12.1331 42.8262 12.5295 43.0578 12.8731L44.267 12.066ZM43.8535 10.4091C43.7235 9.47658 43.5685 8.17233 42.6772 7.28653L41.6482 8.31181C42.1294 8.78995 42.2636 9.54893 42.4113 10.6082L43.8535 10.4091ZM42.6778 7.28725C41.7879 6.40035 40.4776 6.24671 39.5413 6.11578L39.3386 7.55063C40.4058 7.69984 41.1669 7.83211 41.6475 8.31108L42.6778 7.28725ZM39.5395 6.11555C39.1496 6.06195 38.8117 6.01445 38.5136 5.94501C38.2141 5.87523 38.0097 5.79477 37.8741 5.70452L37.0647 6.90899C37.4096 7.13848 37.8075 7.26861 38.1817 7.35579C38.5573 7.44332 38.9644 7.49918 39.3403 7.55086L39.5395 6.11555ZM37.8741 5.70453C37.7423 5.61681 37.5924 5.4624 37.4153 5.21544C37.239 4.96973 37.0678 4.67924 36.8701 4.34265L35.6129 5.07353C35.8026 5.39669 36.008 5.74761 36.2302 6.05733C36.4515 6.36579 36.7219 6.68084 37.0647 6.90899L37.8741 5.70453ZM36.8698 4.34219C36.3886 3.52372 35.7436 2.37329 34.571 1.88796L34.0118 3.22583C34.6505 3.4901 35.0675 4.14601 35.6132 5.07399L36.8698 4.34219ZM34.5703 1.88768C33.4149 1.41093 32.1515 1.76704 31.2409 2.00374L31.609 3.40564C32.6456 3.13617 33.3935 2.97067 34.0125 3.22612L34.5703 1.88768ZM31.2419 2.00349C30.8748 2.0984 30.5406 2.18405 30.2301 2.23497C29.9158 2.28652 29.6843 2.2916 29.5202 2.25947L29.2393 3.68119C29.6527 3.76208 30.0832 3.72755 30.4669 3.66463C30.8543 3.60109 31.2539 3.49742 31.608 3.40589L31.2419 2.00349ZM29.5203 2.25949C29.3725 2.23053 29.18 2.14795 28.9245 1.98932C28.6707 1.8318 28.4036 1.63114 28.0946 1.39804L27.215 2.55274C27.5117 2.77653 27.8333 3.01973 28.1538 3.21866C28.4724 3.41647 28.8395 3.60291 29.2392 3.68116L29.5203 2.25949ZM28.0944 1.39788C27.3277 0.819977 26.2842 0 25 0V1.44894C25.7057 1.44894 26.3493 1.90016 27.2153 2.5529L28.0944 1.39788ZM25 0C23.716 0 22.6716 0.819765 21.9047 1.39788L22.7837 2.5529C23.6495 1.90039 24.2941 1.44894 25 1.44894V0ZM21.904 1.39838C21.5959 1.63117 21.3287 1.83188 21.075 1.98932C20.8195 2.14799 20.627 2.2306 20.4794 2.25954L20.7611 3.68112C21.1601 3.60283 21.5272 3.41642 21.8458 3.21866C22.1663 3.01965 22.4878 2.7765 22.7844 2.5524L21.904 1.39838ZM20.4812 2.2592C20.3159 2.29121 20.0839 2.28582 19.7698 2.23426C19.4592 2.1833 19.1254 2.09783 18.7584 2.00332L18.3936 3.40606C18.7468 3.49701 19.1459 3.6004 19.5328 3.66389C19.916 3.7268 20.3461 3.76149 20.7594 3.68145L20.4812 2.2592ZM18.7599 2.00369C17.8477 1.76683 16.5851 1.41216 15.4304 1.88742L15.9868 3.22638C16.6065 2.97138 17.3552 3.13638 18.3922 3.40569L18.7599 2.00369ZM15.4296 1.88771C14.2563 2.37206 13.6113 3.52298 13.1308 4.34175L14.3881 5.07251C14.9326 4.14482 15.3496 3.48938 15.9876 3.22609L15.4296 1.88771ZM13.1312 4.34101C12.933 4.67788 12.7615 4.9684 12.585 5.2143C12.4077 5.46141 12.2577 5.61583 12.1259 5.70357L12.9353 6.90802C13.2781 6.67988 13.5484 6.36485 13.7699 6.05653C13.992 5.74701 14.1976 5.39613 14.3877 5.07325L13.1312 4.34101ZM12.1259 5.70356C11.9901 5.79389 11.7859 5.87434 11.4865 5.94425C11.1885 6.01383 10.8508 6.06153 10.4605 6.11567L10.6616 7.55074C11.0372 7.49862 11.444 7.44249 11.8192 7.35487C12.193 7.26755 12.5906 7.13742 12.9353 6.90802L12.1259 5.70356ZM10.4606 6.11567C9.52213 6.24586 8.21349 6.3993 7.32253 7.28593L8.3521 8.31048C8.83368 7.83123 9.59454 7.69876 10.6615 7.55075L10.4606 6.11567ZM7.3229 7.28556C6.43149 8.17138 6.27728 9.47629 6.14658 10.4075L7.58861 10.6079C7.73748 9.54729 7.87059 8.78897 8.35173 8.31084L7.3229 7.28556ZM6.14655 10.4077C6.09208 10.7966 6.04441 11.1327 5.97457 11.4295C5.90444 11.7276 5.82368 11.9305 5.73299 12.0651L6.94222 12.8721C7.1738 12.5285 7.30465 12.1321 7.39225 11.7598C7.48015 11.3863 7.53634 10.9811 7.58864 10.6077L6.14655 10.4077ZM5.73243 12.0659C5.64427 12.1971 5.48909 12.3463 5.24078 12.5228C4.99367 12.6984 4.70173 12.8691 4.36321 13.0664L5.09903 14.3167C5.42349 14.1276 5.77608 13.9229 6.08712 13.7018C6.39695 13.4816 6.71352 13.2125 6.94278 12.8714L5.73243 12.0659ZM4.36343 13.0663C3.54113 13.5451 2.38458 14.187 1.89791 15.3546L3.24284 15.9097C3.50748 15.2748 4.16611 14.86 5.09881 14.3168L4.36343 13.0663ZM1.89799 15.3544C1.41879 16.5032 1.77663 17.7616 2.01341 18.6663L3.42242 18.301C3.15251 17.2699 2.98618 16.525 3.24276 15.9099L1.89799 15.3544ZM2.01329 18.6658C2.10877 19.0316 2.19503 19.364 2.24631 19.673C2.29821 19.9857 2.30316 20.2154 2.27075 20.378L3.69896 20.6599C3.78109 20.2478 3.74624 19.8186 3.68288 19.4369C3.61889 19.0513 3.51441 18.6534 3.42255 18.3015L2.01329 18.6658ZM2.27078 20.3778C2.24127 20.5257 2.15777 20.718 1.99824 20.9725C1.8399 21.2252 1.63838 21.4911 1.40477 21.798L2.56534 22.673C2.78989 22.378 3.03391 22.0581 3.23375 21.7392C3.43241 21.4221 3.61972 21.057 3.69893 20.6601L2.27078 20.3778ZM1.40497 21.7977C0.823578 22.5606 0 23.6005 0 24.8783H1.45603C1.45603 24.1759 1.90987 23.5331 2.56513 22.6733L1.40497 21.7977ZM0 24.8783C0 26.1564 0.824015 27.1946 1.40497 27.9571L2.56513 27.0815C1.90944 26.221 1.45603 25.5805 1.45603 24.8783H0ZM1.40444 27.9563C1.63819 28.2638 1.83974 28.53 1.99818 28.783C2.15776 29.0378 2.24127 29.23 2.27078 29.3779L3.69893 29.0956C3.61972 28.6987 3.43242 28.3336 3.23382 28.0166C3.03407 27.6976 2.79008 27.3775 2.56567 27.0822L1.40444 27.9563ZM2.27075 29.3777C2.30316 29.5404 2.2982 29.7698 2.24632 30.0822C2.19505 30.3909 2.1088 30.723 2.01329 31.0889L3.42255 31.4532C3.51438 31.1014 3.61887 30.7037 3.68287 30.3184C3.74625 29.9368 3.78109 29.5079 3.69896 29.0958L2.27075 29.3777ZM2.01337 31.0886C1.77662 31.994 1.41881 33.2526 1.89799 34.4013L3.24276 33.8457C2.98616 33.2306 3.15252 32.4859 3.42247 31.4535L2.01337 31.0886ZM1.89766 34.4005C2.38333 35.5687 3.54171 36.2109 4.36343 36.6894L5.09881 35.4389C4.16553 34.8954 3.50679 34.4809 3.24309 33.8466L1.89766 34.4005ZM4.36389 36.6897C4.70195 36.8862 4.99362 37.0566 5.24022 37.232C5.48805 37.4082 5.64317 37.5575 5.73146 37.6888L6.94181 36.8834C6.71269 36.5424 6.39654 36.2734 6.08671 36.0531C5.77565 35.8319 5.42327 35.6275 5.09835 35.4386L4.36389 36.6897ZM5.73164 37.6891C5.8227 37.8244 5.9035 38.0278 5.97361 38.3256C6.04345 38.6223 6.09112 38.9583 6.14558 39.347L7.58767 39.1469C7.53536 38.7736 7.47917 38.3687 7.39126 37.9952C7.30364 37.6228 7.17283 37.2268 6.94162 36.8831L5.73164 37.6891ZM6.1456 39.3471C6.27647 40.2804 6.43171 41.583 7.32119 42.4694L8.3515 41.4455C7.87037 40.9661 7.73634 40.2073 7.58765 39.1468L6.1456 39.3471ZM7.32193 42.4701C8.21267 43.3552 9.52155 43.5098 10.4595 43.64L10.6606 42.205C9.59513 42.057 8.83257 41.9236 8.35076 41.4449L7.32193 42.4701ZM10.4603 43.6401C10.6109 43.6609 10.7592 43.6824 10.9042 43.7049L11.1284 42.2733C10.9745 42.2494 10.818 42.2266 10.6599 42.2049L10.4603 43.6401ZM10.3956 42.6106L3.9347 53.1019L5.17615 53.859L11.6371 43.3677L10.3956 42.6106ZM3.92563 53.1171C3.50941 53.8314 3.56878 54.7186 4.07166 55.3719L5.22751 54.4907C5.08196 54.3017 5.06563 54.0491 5.18523 53.8438L3.92563 53.1171ZM4.07215 55.3725C4.57494 56.0241 5.4167 56.3122 6.22119 56.1001L5.84831 54.6995C5.61223 54.7617 5.37265 54.6788 5.22701 54.4901L4.07215 55.3725ZM6.2232 56.0996L14.3294 53.9377L13.9525 52.5382L5.8463 54.7L6.2232 56.0996ZM13.4377 53.4254L15.6091 61.4921L17.0156 61.1172L14.8442 53.0505L13.4377 53.4254ZM15.6097 61.494C15.8254 62.2872 16.4943 62.8759 17.316 62.9814L17.5025 61.5445C17.272 61.5148 17.0789 61.3499 17.015 61.1154L15.6097 61.494ZM17.3012 62.9794C17.3988 62.9939 17.4933 63 17.584 63V61.5511C17.5581 61.5511 17.5362 61.5493 17.5173 61.5465L17.3012 62.9794ZM17.584 63C18.3125 63 18.9912 62.6109 19.3536 61.9802L18.0896 61.261C17.9881 61.4377 17.7931 61.5511 17.584 61.5511V63ZM19.3506 61.9854L25.8047 50.9647L24.5467 50.2351L18.0926 61.2558L19.3506 61.9854ZM24.5381 50.9495L30.6398 61.9702L31.9151 61.271L25.8133 50.2504L24.5381 50.9495ZM30.6468 61.9824C31.0106 62.6104 31.6877 63 32.416 63V61.5511C32.2086 61.5511 32.0121 61.4382 31.9081 61.2588L30.6468 61.9824ZM32.416 63C32.5117 63 32.6002 62.9917 32.6708 62.9837L32.5049 61.5442C32.4571 61.5496 32.4311 61.5511 32.416 61.5511V63ZM32.6832 62.9821C33.5036 62.8743 34.1759 62.2884 34.3899 61.4918L32.9834 61.1175C32.9218 61.3469 32.7302 61.5144 32.4925 61.5456L32.6832 62.9821ZM34.3898 61.4922L36.5622 53.4255L35.1559 53.0504L32.9835 61.1171L34.3898 61.4922ZM35.6706 53.9377L43.7778 56.0996L44.1546 54.7L36.0475 52.5382L35.6706 53.9377ZM43.7791 56.0999C44.5759 56.3109 45.4235 56.028 45.9279 55.3712L44.771 54.4913C44.627 54.6789 44.3855 54.7611 44.1534 54.6997L43.7791 56.0999ZM45.9267 55.3727C46.4332 54.7167 46.4878 53.8295 46.0723 53.1127L44.811 53.8366C44.9353 54.051 44.916 54.3036 44.7722 54.4899L45.9267 55.3727ZM46.0623 53.096L39.6034 42.6105L38.3621 43.3677L44.821 53.8532L46.0623 53.096ZM39.0942 43.705C39.241 43.6824 39.3884 43.6608 39.5391 43.6402L39.3407 42.2048C39.1808 42.2266 39.0253 42.2495 38.8713 42.2732L39.0942 43.705ZM39.5406 43.64C40.4766 43.5099 41.7865 43.3564 42.6765 42.4707L41.647 41.4461C41.1664 41.9244 40.4048 42.0569 39.3393 42.205L39.5406 43.64ZM42.6765 42.4707C43.5674 41.5843 43.7226 40.2803 43.8534 39.3482L42.4114 39.1477C42.2627 40.2074 42.1286 40.9668 41.647 41.4461L42.6765 42.4707ZM43.8534 39.348C43.9079 38.9593 43.9556 38.6232 44.0253 38.3264C44.0954 38.0284 44.1761 37.8247 44.2669 37.6892L43.0559 36.885C42.8255 37.2284 42.695 37.6243 42.6076 37.9964C42.5198 38.3697 42.4637 38.7746 42.4114 39.1479L43.8534 39.348ZM44.2666 37.6898C44.3548 37.5586 44.5099 37.4095 44.7581 37.2331C45.005 37.0577 45.2969 36.8873 45.6351 36.6907L44.9007 35.4396C44.5759 35.6283 44.2233 35.8327 43.9121 36.0538C43.6021 36.2741 43.2855 36.5432 43.0563 36.8844L44.2666 37.6898ZM45.6351 36.6907C46.4576 36.2126 47.6154 35.5708 48.1022 34.4019L46.757 33.8472C46.4925 34.4826 45.8332 34.8975 44.9007 35.4396L45.6351 36.6907ZM48.102 34.4022C48.5812 33.2535 48.2234 31.995 47.9866 31.0896L46.5776 31.4545C46.8475 32.4868 47.0139 33.2316 46.7572 33.8467L48.102 34.4022ZM47.9865 31.089C47.8907 30.724 47.8044 30.3917 47.7532 30.083C47.7013 29.7707 47.6962 29.5404 47.7286 29.3763L46.2998 29.0972C46.2186 29.5089 46.2533 29.9373 46.3166 30.3192C46.3807 30.7049 46.4851 31.1024 46.5777 31.4551L47.9865 31.089ZM47.7282 29.3779C47.7577 29.23 47.8412 29.0378 48.0008 28.7833C48.1591 28.5308 48.3609 28.2649 48.5947 27.9583L47.4352 27.0822C47.2099 27.3774 46.9656 27.6972 46.7655 28.0164C46.5666 28.3335 46.3793 28.6986 46.3001 29.0956L47.7282 29.3779Z" fill="url(#paint1_linear)"/>
<path fill-rule="evenodd" clip-rule="evenodd" d="M30.5894 27.4657C30.4748 27.5768 30.4234 27.7361 30.4496 27.8936L31.6833 35.0494L25.2254 31.6715C25.1545 31.6338 25.0778 31.6154 25.0002 31.6154C24.9225 31.6154 24.8448 31.6338 24.774 31.6715L18.316 35.0494L19.5498 27.8936C19.5769 27.7361 19.5245 27.5768 19.41 27.4657L14.1857 22.3982L21.4057 21.355C21.5639 21.3309 21.6998 21.2333 21.7707 21.0903L25.0002 14.5798L28.2287 21.0903C28.2995 21.2333 28.4364 21.3309 28.5946 21.355L35.8136 22.3982L30.5894 27.4657ZM36.927 21.5829L28.9868 20.4353L25.435 13.2746C25.2719 12.9462 24.7274 12.9462 24.5643 13.2746L21.0135 20.4353L13.0733 21.5829C12.8899 21.6099 12.7385 21.7365 12.6812 21.9123C12.6239 22.0871 12.6715 22.2793 12.8035 22.4078L18.5499 27.9804L17.1939 35.8501C17.1619 36.0317 17.2376 36.2152 17.3861 36.3225C17.5366 36.4307 17.7346 36.4461 17.8976 36.3592L25.0002 32.6431L32.1017 36.3592C32.1725 36.3968 32.2502 36.4152 32.3279 36.4152C32.4288 36.4152 32.5288 36.3833 32.6132 36.3225C32.7627 36.2152 32.8375 36.0317 32.8064 35.8501L31.4494 27.9804L37.1958 22.4078C37.3279 22.2793 37.3754 22.0871 37.3191 21.9123C37.2619 21.7365 37.1095 21.6099 36.927 21.5829Z" fill="url(#paint2_linear)"/>
<path d="M30.5894 27.4655L31.0974 27.9844H31.0975L30.5894 27.4655ZM30.4496 27.8935L29.7313 28.0119L29.7321 28.016L30.4496 27.8935ZM31.6833 35.0493L31.3446 35.6906L32.6502 36.3735L32.4009 34.9268L31.6833 35.0493ZM25.2254 31.6713L24.8822 32.3104L24.8866 32.3126L25.2254 31.6713ZM24.774 31.6713L25.1127 32.3126L25.117 32.3103L24.774 31.6713ZM18.316 35.0493L17.5985 34.9268L17.349 36.3735L18.6547 35.6906L18.316 35.0493ZM19.5498 27.8935L18.8322 27.7709V27.771L19.5498 27.8935ZM19.41 27.4655L18.9018 27.9844L19.41 27.4655ZM14.1858 22.3981L14.0811 21.6812L12.6211 21.8921L13.6776 22.9169L14.1858 22.3981ZM21.4057 21.3549L21.5103 22.0719L21.5161 22.071L21.4057 21.3549ZM21.7707 21.0902L21.1178 20.7696L21.1177 20.7698L21.7707 21.0902ZM25.0002 14.5796L25.653 14.259L25.0003 12.9427L24.3473 14.259L25.0002 14.5796ZM28.2287 21.0902L28.8816 20.7698L28.8815 20.7696L28.2287 21.0902ZM28.5946 21.3549L28.4843 22.071L28.49 22.0718L28.5946 21.3549ZM35.8136 22.3981L36.3218 22.9169L37.3782 21.8921L35.9182 21.6812L35.8136 22.3981ZM28.9868 20.4352L28.3339 20.7559L28.5034 21.0974L28.8821 21.1522L28.9868 20.4352ZM25.435 13.2745L26.0878 12.9539L26.0877 12.9536L25.435 13.2745ZM24.5643 13.2745L23.9116 12.9536L23.9115 12.954L24.5643 13.2745ZM21.0136 20.4352L21.1182 21.1522L21.497 21.0974L21.6664 20.7558L21.0136 20.4352ZM13.0734 21.5827L12.9687 20.8658L12.9667 20.8661L13.0734 21.5827ZM12.6812 21.9121L13.3733 22.1367L13.3737 22.1356L12.6812 21.9121ZM12.8035 22.4077L12.2945 22.9257L12.2954 22.9266L12.8035 22.4077ZM18.55 27.9803L19.2675 28.1028L19.3321 27.7273L19.058 27.4615L18.55 27.9803ZM17.1939 35.85L17.911 35.9753L17.9115 35.9725L17.1939 35.85ZM17.3861 36.3223L16.9585 36.9088L16.9597 36.9096L17.3861 36.3223ZM17.8977 36.359L17.5588 35.7178L17.5539 35.7204L17.8977 36.359ZM25.0002 32.643L25.3389 32.0018L25.0002 31.8245L24.6613 32.0018L25.0002 32.643ZM32.1017 36.359L32.4447 35.7201L32.4405 35.7178L32.1017 36.359ZM32.6133 36.3223L32.1875 35.7346L32.1863 35.7356L32.6133 36.3223ZM32.8064 35.85L33.5241 35.7285L33.524 35.7275L32.8064 35.85ZM31.4494 27.9803L30.9413 27.4615L30.6671 27.7274L30.7319 28.1029L31.4494 27.9803ZM37.1959 22.4077L37.7039 22.9266L37.7049 22.9257L37.1959 22.4077ZM37.3191 21.9121L38.0124 21.6911L38.0116 21.6888L37.3191 21.9121ZM30.0812 26.9467C29.7932 27.2261 29.6668 27.6246 29.7313 28.0119L31.1678 27.7751C31.1798 27.8475 31.1564 27.9273 31.0974 27.9844L30.0812 26.9467ZM29.7321 28.016L30.9658 35.1719L32.4009 34.9268L31.1671 27.771L29.7321 28.016ZM32.022 34.4081L25.564 31.0301L24.8866 32.3126L31.3446 35.6906L32.022 34.4081ZM25.5684 31.0323C25.3897 30.9374 25.1948 30.8908 25.0002 30.8908V32.3398C24.9608 32.3398 24.9193 32.33 24.8823 32.3103L25.5684 31.0323ZM25.0002 30.8908C24.807 30.8908 24.6109 30.9366 24.431 31.0323L25.117 32.3103C25.0787 32.3307 25.038 32.3398 25.0002 32.3398V30.8908ZM24.4352 31.0301L17.9773 34.4081L18.6547 35.6906L25.1127 32.3126L24.4352 31.0301ZM19.0336 35.1719L20.2673 28.016L18.8322 27.771L17.5985 34.9268L19.0336 35.1719ZM20.2672 28.0161C20.3352 27.6228 20.2037 27.2238 19.9181 26.9467L18.9018 27.9844C18.8454 27.9296 18.8187 27.8493 18.8322 27.7709L20.2672 28.0161ZM19.9182 26.9468L14.6939 21.8794L13.6776 22.9169L18.9018 27.9844L19.9182 26.9468ZM14.2903 23.115L21.5103 22.0718L21.3011 20.6379L14.0811 21.6812L14.2903 23.115ZM21.5161 22.071C21.905 22.0116 22.2457 21.7695 22.4236 21.4107L21.1177 20.7698C21.1539 20.6968 21.2229 20.6498 21.2954 20.6388L21.5161 22.071ZM22.4235 21.4109L25.653 14.9003L24.3473 14.259L21.1178 20.7696L22.4235 21.4109ZM24.3473 14.9002L27.5758 21.4108L28.8815 20.7696L25.653 14.259L24.3473 14.9002ZM27.5757 21.4107C27.7545 21.7714 28.0973 22.0119 28.4843 22.071L28.705 20.6388C28.7754 20.6495 28.8445 20.695 28.8816 20.7698L27.5757 21.4107ZM28.49 22.0718L35.709 23.115L35.9182 21.6812L28.6993 20.6379L28.49 22.0718ZM35.3055 21.8794L30.0812 26.9468L31.0975 27.9844L36.3218 22.9169L35.3055 21.8794ZM37.0316 20.8658L29.0914 19.7182L28.8821 21.1522L36.8223 22.2998L37.0316 20.8658ZM29.6396 20.1146L26.0878 12.9539L24.7822 13.5952L28.3339 20.7559L29.6396 20.1146ZM26.0877 12.9536C25.8539 12.4827 25.3798 12.3037 24.9997 12.3037C24.6196 12.3037 24.1455 12.4827 23.9116 12.9536L25.217 13.5955C25.1463 13.738 25.026 13.7527 24.9997 13.7527C24.9734 13.7527 24.8531 13.738 24.7824 13.5955L26.0877 12.9536ZM23.9115 12.954L20.3607 20.1147L21.6664 20.7558L25.2171 13.5951L23.9115 12.954ZM20.9089 19.7182L12.9687 20.8658L13.178 22.2998L21.1182 21.1522L20.9089 19.7182ZM12.9667 20.8661C12.5117 20.9332 12.1319 21.2492 11.9886 21.6888L13.3737 22.1356C13.3451 22.2236 13.268 22.2864 13.18 22.2995L12.9667 20.8661ZM11.989 21.6876C11.8458 22.1248 11.9647 22.6047 12.2945 22.9257L13.3125 21.8897C13.3783 21.9538 13.402 22.0492 13.3733 22.1367L11.989 21.6876ZM12.2954 22.9266L18.0418 28.4992L19.058 27.4615L13.3116 21.8888L12.2954 22.9266ZM17.8324 27.8579L16.4764 35.7276L17.9115 35.9725L19.2675 28.1028L17.8324 27.8579ZM16.4769 35.7248C16.3964 36.1807 16.5861 36.6398 16.9585 36.9088L17.8136 35.736C17.8891 35.7905 17.9273 35.8825 17.911 35.9753L16.4769 35.7248ZM16.9597 36.9096C17.3295 37.1756 17.826 37.2191 18.2414 36.9977L17.5539 35.7204C17.6431 35.6729 17.7435 35.6856 17.8124 35.7351L16.9597 36.9096ZM18.2364 37.0003L25.3389 33.2843L24.6613 32.0018L17.5588 35.7178L18.2364 37.0003ZM24.6613 33.2843L31.7628 37.0003L32.4405 35.7178L25.3389 32.0018L24.6613 33.2843ZM31.7587 36.9981C31.9386 37.0938 32.1347 37.1395 32.3279 37.1395V35.6906C32.3657 35.6906 32.4064 35.6998 32.4447 35.7201L31.7587 36.9981ZM32.3279 37.1395C32.583 37.1395 32.8322 37.0591 33.0403 36.9092L32.1863 35.7356C32.2254 35.7074 32.2746 35.6906 32.3279 35.6906V37.1395ZM33.0389 36.9101C33.4163 36.6395 33.6012 36.1795 33.5241 35.7285L32.0887 35.9716C32.0737 35.8838 32.1092 35.7909 32.1875 35.7346L33.0389 36.9101ZM33.524 35.7275L32.1669 27.8578L30.7319 28.1029L32.0889 35.9726L33.524 35.7275ZM31.9575 28.4992L37.7039 22.9266L36.6877 21.8888L30.9413 27.4615L31.9575 28.4992ZM37.7049 22.9257C38.0346 22.6047 38.1525 22.1262 38.0124 21.6911L36.6258 22.1332C36.5983 22.0478 36.621 21.9538 36.6868 21.8897L37.7049 22.9257ZM38.0116 21.6888C37.8681 21.2479 37.4865 20.9332 37.0342 20.8662L36.8197 22.2994C36.7324 22.2864 36.6557 22.2248 36.6266 22.1356L38.0116 21.6888Z" fill="url(#paint3_linear)"/>
<defs>
<linearGradient id="paint0_linear" x1="17.4975" y1="5.00876" x2="4.38547" y2="45.1912" gradientUnits="userSpaceOnUse">
<stop stop-color="#B78EFF"/>
<stop offset="1" stop-color="#8B83FF"/>
</linearGradient>
<linearGradient id="paint1_linear" x1="17.2725" y1="4.386" x2="3.9198" y2="45.5639" gradientUnits="userSpaceOnUse">
<stop stop-color="#B78EFF"/>
<stop offset="1" stop-color="#8B83FF"/>
</linearGradient>
<linearGradient id="paint2_linear" x1="21.1847" y1="14.6565" x2="17.2969" y2="30.602" gradientUnits="userSpaceOnUse">
<stop stop-color="#B78EFF"/>
<stop offset="1" stop-color="#8B83FF"/>
</linearGradient>
<linearGradient id="paint3_linear" x1="20.9597" y1="14.0328" x2="16.8207" y2="30.9609" gradientUnits="userSpaceOnUse">
<stop stop-color="#B78EFF"/>
<stop offset="1" stop-color="#8B83FF"/>
</linearGradient>
</defs>
</svg>
