<svg viewBox="0 0 810 10" width="810" height="10" preserveAspectRatio="xMaxYMin slice"
     xmlns="http://www.w3.org/2000/svg" fill="#6E28F7">
    <path d="M800 9.5c-27.6 0-43.2-3.3-50-4.6-6.8-1.3-22.4-4.6-50-4.6s-43.2 3.3-50 4.6c-6.8 1.3-22.4 4.6-50 4.6s-43.2-3.3-50-4.6c-6.8-1.3-22.4-4.6-50-4.6s-43.2 3.3-50 4.6c-6.8 1.3-22.4 4.6-50 4.6s-43.2-3.3-50-4.6c-6.8-1.3-22.4-4.6-50-4.6s-43.2 3.3-50 4.6c-6.8 1.3-22.4 4.6-50 4.6s-43.2-3.3-50-4.6c-6.8-1.3-22.4-4.6-50-4.6S56.8 3.7 50 4.9C43.2 6.1 27.6 9.5 0 9.5L.1 0h799.8l.1 9.5z"/>
</svg>