<svg width="504" height="382" viewBox="0 0 504 382" fill="none" xmlns="http://www.w3.org/2000/svg">
<path d="M343.513 245.32C343.513 239.797 347.99 235.32 353.513 235.32H493.634C499.297 235.32 503.831 240.02 503.627 245.68L499.369 364.028C499.021 373.711 491.07 381.381 481.381 381.381H343.513V245.32Z" fill="#6120DE"/>
<path d="M346.224 82.7781C481.957 101.928 495.768 238.286 493.622 324.326C493.098 345.335 475.465 361.546 454.449 361.546H394.154C371.661 361.546 354.02 342.916 351.513 320.563C350.446 311.054 348.773 302.386 346.224 297.027C338.116 279.985 303.655 239.407 231.086 287.695C173.031 326.324 52.839 327.596 0 323.403C2.70276 264.024 0 116.214 0 0C70.1367 1.21733 115.138 -5.68085 173.923 50.7219C232.708 107.125 242.843 73.8511 346.224 82.7781Z" fill="url(#paint0_linear)"/>
<path d="M108.984 254.272C107.905 254.754 106.636 251.899 105.557 252.381C104.479 252.864 105.748 255.719 104.669 256.202C103.161 256.883 99.9779 256.109 99.4164 257.544C98.8548 258.979 101.732 260.55 102.413 262.058C102.895 263.137 100.04 264.406 100.523 265.485C101.005 266.564 103.861 265.294 104.343 266.373C105.024 267.881 104.25 271.064 105.685 271.626C107.12 272.187 108.691 269.31 110.199 268.629C111.278 268.147 112.547 271.002 113.626 270.52C114.705 270.037 113.435 267.182 114.514 266.699C116.023 266.019 119.205 266.792 119.767 265.357C120.328 263.923 117.451 262.351 116.771 260.843C116.288 259.764 119.143 258.495 118.661 257.416C118.178 256.338 115.323 257.607 114.84 256.528C114.16 255.02 114.933 251.837 113.498 251.275C112.064 250.714 110.492 253.591 108.984 254.272Z" fill="#375BF4"/>
<path d="M228.896 100.793C217.848 93.5972 211.349 93.5972 200.251 100.793C198.101 102.202 195.552 99.6354 196.952 97.4717C204.1 86.3512 204.1 79.8098 196.952 68.639C195.552 66.4753 198.101 63.909 200.251 65.3179C211.299 72.5135 217.798 72.5135 228.896 65.3179C231.045 63.909 233.595 66.4753 232.195 68.639C225.046 79.7594 225.046 86.3009 232.195 97.4717C233.645 99.6354 231.045 102.252 228.896 100.793Z" fill="#11BC87"/>
<path d="M321.921 275.942C321.411 270.099 326.017 265.073 331.883 265.073H377.318C386.751 265.073 395.846 268.581 402.836 274.915L408.446 279.999C416.907 287.667 427.917 291.913 439.335 291.913H475.929C485.333 291.913 493.153 299.153 493.876 308.53L498.247 365.228C498.918 373.941 492.03 381.381 483.291 381.381H347.615C338.28 381.381 330.494 374.244 329.683 364.945L321.921 275.942Z" fill="#8344FF"/>
<path d="M210.231 237.562H176.035C169.876 237.562 157.781 234.924 157.781 219.365V154.339C157.781 144.289 165.953 136.142 176.034 136.142H241.259C251.341 136.142 259.513 144.289 259.512 154.339V219.365C259.512 229.415 251.34 237.562 241.259 237.562H231.908L210.231 254.143V237.562Z" fill="white"/>
<path d="M197.076 204.98L198.622 206.231C201.073 208.215 204.13 209.298 207.283 209.298H229.227C231.307 209.298 232.982 207.562 232.883 205.46C232.791 203.491 232.887 185.558 232.887 183.537C232.887 181.515 231.249 179.875 229.227 179.875L214.347 179.831L216.169 175.515C218.062 171.031 217.756 165.92 215.341 161.693C214.032 159.669 210.853 160.414 210.791 162.902C210.791 166.772 209.378 170.509 206.818 173.411L197.33 184.149H193.871V204.979H197.076V204.98Z" fill="#FFC607"/>
<path d="M195.573 208.322H185.342C184.666 208.322 184.117 207.779 184.117 207.108V181.25C184.117 180.579 184.665 180.035 185.342 180.035H195.573C196.249 180.035 196.798 180.579 196.798 181.25V207.108C196.797 207.778 196.249 208.322 195.573 208.322Z" fill="#11BC87"/>
<path d="M107.914 117.923C114.541 117.923 119.914 112.551 119.914 105.923V67.7683C119.914 61.7116 114.989 56.8015 108.913 56.8015H69.6051C63.5298 56.8015 58.6045 61.7116 58.6045 67.7683V106.957C58.6045 113.013 63.5295 117.923 69.6051 117.923H91.1995V128.01L104.263 117.923H107.914Z" fill="#FF5A45"/>
<path d="M103.675 90.5908H95.7691L96.6352 85.3526H103.675C106.445 85.3526 106.445 81.0581 103.675 81.0581H97.3452L98.5276 73.9065C98.9794 71.1741 94.7427 70.4732 94.2906 73.2062L92.9925 81.0581H87.8125L88.9949 73.9065C89.4467 71.1741 85.2105 70.4729 84.7579 73.2062L83.4598 81.0581H74.8441C72.0741 81.0581 72.0741 85.3526 74.8441 85.3526H82.7498L81.8837 90.5908H74.8441C72.0741 90.5908 72.0741 94.8854 74.8441 94.8854H81.1737L79.9912 102.037C79.544 104.741 83.7756 105.474 84.2282 102.737L85.5263 94.8854H90.7064L89.524 102.037C89.0768 104.741 93.3083 105.474 93.761 102.737L95.0591 94.8854H103.675C106.445 94.8854 106.445 90.5908 103.675 90.5908ZM91.4164 90.5908H86.2366L87.1027 85.3526H92.2828L91.4164 90.5908Z" fill="#F7F3F1"/>
<path d="M447.964 208.273H418.483C413.926 208.273 410.232 211.956 410.232 216.498V245.889C410.232 250.432 413.926 254.114 418.483 254.114H434.679V261.679L444.476 254.115H447.964C452.521 254.115 456.215 250.432 456.215 245.89V216.499C456.215 211.956 452.521 208.273 447.964 208.273Z" fill="#11BC87"/>
<path d="M433.224 241.177C440.318 237.416 443.994 234.216 443.994 229.258C443.994 222.42 435.617 220.711 433.224 225.84C430.489 220.54 422.454 222.421 422.454 229.258C422.454 234.216 426.13 237.416 433.224 241.177Z" fill="#F7F3F1"/>
<ellipse cx="343.513" cy="176.714" rx="23.4418" ry="23.4419" fill="white"/>
<path d="M349.597 175.504C350.264 175.889 350.264 176.851 349.597 177.236L340.704 182.371C340.037 182.756 339.204 182.275 339.204 181.505L339.204 171.236C339.204 170.466 340.037 169.985 340.704 170.37L349.597 175.504Z" fill="#6E28F7"/>
<path d="M29.7529 171.307H79.352V208.724H29.7529V171.307Z" fill="#8344FF"/>
<path d="M34.9736 176.527H74.1308V203.502H34.9736V176.527Z" fill="white"/>
<path d="M58.0328 193.497L45.9546 183.49L34.9736 191.321V203.503H74.1307V193.497L66.8384 188.711L58.0328 193.497Z" fill="#6120DE"/>
<path d="M60.2083 183.49C60.2083 184.932 59.0395 186.101 57.5978 186.101C56.1561 186.101 54.9873 184.932 54.9873 183.49C54.9873 182.049 56.1561 180.88 57.5978 180.88C59.0395 180.88 60.2083 182.049 60.2083 183.49Z" fill="#FFC607"/>
<defs>
<linearGradient id="paint0_linear" x1="493.181" y1="201.961" x2="49.5885" y2="187.084" gradientUnits="userSpaceOnUse">
<stop stop-color="#6E28F7" stop-opacity="0.89"/>
<stop offset="0.546875" stop-color="#6E28F7" stop-opacity="0.19"/>
<stop offset="1" stop-color="#6E28F7" stop-opacity="0"/>
</linearGradient>
</defs>
</svg>
