<svg width="24" height="24" viewBox="0 0 24 24" fill="#2C3033" xmlns="http://www.w3.org/2000/svg">
    <path d="M16.6344 21.7562C15.8029 22.5877 14.4549 22.5877 13.6234 21.7562L5.5016 13.6344C4.67013 12.8029 4.67013 11.4549 5.5016 10.6234L13.6234 2.5016C14.4549 1.67013 15.8029 1.67013 16.6344 2.5016C17.4659 3.33307 17.4659 4.68115 16.6344 5.51261L10.0181 12.1289L16.6344 18.7452C17.4659 19.5767 17.4659 20.9247 16.6344 21.7562Z"/>
</svg>
