<svg width="24" height="24" viewBox="0 0 24 24" fill="#2C3033" xmlns="http://www.w3.org/2000/svg">
    <path d="M7.36559 2.24379C8.19706 1.41232 9.54513 1.41232 10.3766 2.24379L18.4984 10.3656C19.3299 11.1971 19.3299 12.5451 18.4984 13.3766L10.3766 21.4984C9.54513 22.3299 8.19706 22.3299 7.36559 21.4984C6.53412 20.6669 6.53412 19.3189 7.36559 18.4874L13.9819 11.8711L7.36559 5.2548C6.53412 4.42333 6.53412 3.07526 7.36559 2.24379Z"/>
</svg>
