<svg width="255" height="50" viewBox="0 0 255 50" fill="none" xmlns="http://www.w3.org/2000/svg">
<path d="M148.969 38.3561H136.28C137.804 36.4662 138.729 32.4358 139.231 26.3421C139.693 20.4797 139.963 12.6311 140.137 2.33338H148.969V38.3561ZM152.382 47.4581H154.6V38.3561H151.804V0H137.591C137.418 11.3198 137.244 20.3061 136.666 26.3421C136.107 32.1466 135.142 36.6976 133.137 38.3561H131.96V47.4581H134.178L134.564 40.6894H151.977L152.382 47.4581ZM172.052 40.6894H174.617V12.014H172.283L162.95 32.1466C162.391 33.4 161.812 34.6535 161.427 35.9648H161.253C161.369 34.7114 161.484 33.4579 161.484 31.9152V12.014H158.977V40.6894H161.253L170.586 20.4797C171.204 19.2262 171.724 18.0306 172.11 16.7964H172.283C172.168 17.9728 172.052 19.2262 172.052 20.7111V40.6894ZM189.003 39.0888C186.457 39.0888 184.857 37.9511 183.719 35.6177V19.5733C184.972 16.5072 187.132 13.7688 189.697 13.7688C192.995 13.7688 195.039 18.2042 195.039 25.725C195.039 34.7692 192.647 39.0888 189.003 39.0888ZM188.849 41.1908C194.19 41.1908 197.719 36.0227 197.719 25.4936C197.719 17.1821 194.923 11.4355 190.141 11.4355C186.959 11.4355 184.857 14.0002 183.603 16.7386L183.372 12.014H181.038V49.5601H183.719V38.6839C184.799 40.1109 186.669 41.1908 188.849 41.1908ZM203.967 26.8049H216.945C217.852 16.6229 214.67 11.4355 209.714 11.4355C204.874 11.4355 201.364 16.9507 201.364 26.3421C201.364 35.7334 204.141 41.2487 210.235 41.2487C214.786 41.2487 216.945 38.0089 216.945 38.0089L216.097 35.8491C216.097 35.8491 214.091 38.9153 210.292 38.9153C206.127 38.9153 204.083 34.6535 203.967 26.8049ZM209.714 13.6531C212.626 13.6531 214.901 17.0664 214.438 24.7029H204.025C204.256 17.5292 206.706 13.6531 209.714 13.6531ZM224.678 25.8407L234.629 40.6894H237.599L227.475 25.32L236.904 12.014H234.301L224.678 25.4936V12.014H221.998V40.6894H224.678V25.8407ZM254.434 14.2317V12.014H238.505V14.2317H245.158V40.6894H247.839V14.2317H254.434Z" fill="black"/>
<path d="M15.6394 25.0886V40.6894H20.0169V0H13.4796C7.05798 0 1.65843 4.26178 1.65843 12.8046C1.65843 18.8984 4.03037 22.196 7.61722 24.0087L0 40.6894H5.07172L11.9947 25.0886H15.6394ZM15.6394 21.4439H13.306C9.50706 21.4439 6.36375 19.3419 6.36375 12.8046C6.36375 6.03592 9.77703 3.70255 13.306 3.70255H15.6394V21.4439Z" fill="#FF0000"/>
<path d="M63.9464 37.0446H61.6709V12.0139H48.3649V14.4629C48.3649 22.0801 48.0756 30.9508 45.453 37.0446H43.6981V46.3202H47.6706V40.6893H59.9546V46.3202H63.9464V37.0446ZM83.2305 38.7416L82.2084 35.3283C81.0707 36.1382 79.0651 37.276 76.5775 37.276C73.0485 37.276 71.2165 33.8627 71.2165 27.364H83.1726V24.9149C83.1726 15.1957 80.0486 11.6089 75.2662 11.6089C69.1724 11.6089 66.6076 18.3197 66.6076 27.5375C66.6076 36.3504 70.2523 41.075 76.1725 41.075C79.0266 41.075 81.3985 40.1686 83.2305 38.7416ZM36.7558 12.0139V24.1821H30.1607V12.0139H25.7061V40.6893H30.1607V27.8268H36.7558V40.6893H41.1333V12.0139H36.7558ZM99.7184 40.6893H104.559L96.4208 25.4934L103.537 12.0139H99.0434L92.159 25.262V12.0139H87.7237V40.6893H92.159V26.3998L99.7184 40.6893ZM114.972 41.075C117.595 41.075 119.407 40.2265 120.95 38.9152L119.928 35.6176C118.906 36.5239 117.248 37.3724 115.088 37.3724C111.501 37.3724 109.804 33.2842 109.804 26.1105C109.804 18.8983 112.06 15.3114 115.261 15.3114C117.074 15.3114 118.79 16.2756 119.986 17.2977L120.603 13.0938C119.35 12.2838 117.865 11.6089 115.319 11.6089C108.608 11.6089 105.137 17.3555 105.137 26.3419C105.137 36.1382 108.82 41.075 114.972 41.075ZM57.2934 37.0446H49.6569C52.0481 30.9508 52.3374 22.138 52.3374 16.1021V15.6007H57.2934V37.0446ZM75.2662 15.2536C77.8309 15.2536 78.6216 18.8404 78.6216 23.7193H71.2744C71.5636 18.609 72.5278 15.2536 75.2662 15.2536Z" fill="black"/>
</svg>
