<svg width="140" height="19" viewBox="0 0 140 19" fill="#fff" xmlns="http://www.w3.org/2000/svg">
    <path fill-rule="evenodd" clip-rule="evenodd"
          d="M10.5991 6.7491L8.87074 8.81581C7.98112 7.96329 6.96442 7.67912 5.76979 7.67912C4.29557 7.67912 3.48221 8.14413 3.48221 8.94498C3.48221 9.77166 4.21932 10.2367 5.82063 10.34C8.18446 10.495 11.1837 11.0375 11.1837 14.4218C11.1837 16.6693 9.37909 18.6069 5.79521 18.6069C3.81264 18.6069 1.83007 18.271 0 16.3335L1.52506 14.0859C2.41467 15.0934 4.44808 15.8426 5.84605 15.8685C7.01525 15.8943 8.10821 15.2743 8.10821 14.3443C8.10821 13.4659 7.39652 13.1042 5.61729 13.0009C3.25345 12.8201 0.432099 11.9417 0.432099 9.04832C0.432099 6.10325 3.43137 5.06989 5.71896 5.06989C7.67611 5.06989 9.15033 5.4574 10.5991 6.7491ZM19.0628 5.17331C23.0534 5.17331 25.6206 8.17004 25.6206 11.8126C25.6206 15.481 23.1551 18.4519 19.0883 18.4519C15.0214 18.4519 12.5814 15.481 12.5814 11.8126C12.5814 8.17004 15.0723 5.17331 19.0628 5.17331ZM19.0884 8.04085C16.8517 8.04085 15.6825 9.90089 15.6825 11.8126C15.6825 13.7501 16.8263 15.5585 19.0884 15.5585C21.3506 15.5585 22.4944 13.7501 22.4944 11.8126C22.4944 9.90089 21.1727 8.04085 19.0884 8.04085ZM27.8319 5.43169H30.9329V12.0968C30.9329 14.0344 31.975 15.5069 33.9576 15.5069C35.8639 15.5069 37.1602 13.8794 37.1602 11.9418V5.43169H40.2357V18.1936H37.4652L37.2618 16.4628C35.9655 17.7545 34.7709 18.3745 33.0171 18.3745C30.0178 18.3745 27.8319 16.0753 27.8319 12.1227V5.43169ZM44.252 2.17673L47.3529 1.84089V5.45764H50.8097V8.1702H47.3275V13.6728C47.3275 14.887 47.9884 15.4812 48.9542 15.4812C49.4372 15.4812 49.9963 15.3262 50.4539 15.0937L51.3181 17.7804C50.4284 18.1421 49.6913 18.2971 48.7509 18.3229C46.0312 18.4263 44.252 16.8504 44.252 13.6728V8.1702H41.9136V5.45764H44.252V2.17673ZM53.1227 0.0847413H56.2236V7.16323C57.342 5.6907 58.7145 5.25152 60.1379 5.25152C63.6964 5.25152 65.2723 7.70574 65.2723 11.4517V18.1685H62.1713V11.4775C62.1713 9.15244 60.9767 8.17075 59.3246 8.17075C57.4945 8.17075 56.2236 9.74662 56.2236 11.6583V18.1685H53.1227V0.0847413ZM79.328 18.1678H76.2271V11.3476C76.2271 9.66842 75.3629 8.14422 73.6599 8.14422C71.9823 8.14422 70.9911 9.66842 70.9911 11.3476V18.1678H67.8901V5.40583H70.7623L70.9911 6.95586C71.6519 5.66417 73.1007 5.19916 74.2953 5.19916C75.795 5.19916 77.2946 5.81917 78.0063 7.57588C79.1247 5.7675 80.5735 5.25082 82.2002 5.25082C85.7587 5.25082 87.5125 7.47254 87.5125 11.296V18.1678H84.4116V11.296C84.4116 9.61676 83.7253 8.19589 82.0477 8.19589C80.3702 8.19589 79.328 9.66842 79.328 11.3476V18.1678ZM103.094 12.9235H93.3083C93.5116 14.4993 94.8587 15.636 97.0447 15.636C98.1884 15.636 99.6881 15.1968 100.4 14.4477L102.382 16.4369C101.061 17.8319 98.9001 18.5036 96.9938 18.5036C92.6728 18.5036 90.1056 15.791 90.1056 11.7093C90.1056 7.83418 92.6982 5.04412 96.7651 5.04412C100.959 5.04412 103.577 7.67918 103.094 12.9235ZM93.3592 10.3141H100.12C99.9169 8.66074 98.646 7.83405 96.8668 7.83405C95.1893 7.83405 93.8167 8.66074 93.3592 10.3141ZM111.558 8.06658C109.575 8.06658 108 9.48745 108 11.7867C108 14.0084 109.575 15.5326 111.558 15.5326C113.515 15.5326 115.193 14.0859 115.193 11.7867C115.193 9.56495 113.515 8.06658 111.558 8.06658ZM115.396 0.11025H118.497V18.1681H115.599L115.396 16.4114C114.43 17.9356 112.88 18.4523 111.354 18.4523C107.669 18.4523 104.898 15.9723 104.898 11.7872C104.898 7.39541 107.618 5.12202 111.278 5.12202C112.6 5.12202 114.659 5.84537 115.396 7.1629V0.11025ZM124.292 5.37985V18.1676H121.191V5.37985H124.292ZM120.911 1.84067C120.911 -0.613555 124.571 -0.613555 124.571 1.84067C124.571 4.29489 120.911 4.29489 120.911 1.84067ZM136.924 7.18816L137.026 5.43145H140V18.1676H137.077L136.924 16.3075C136.213 17.8059 134.256 18.5292 132.858 18.5551C129.147 18.5809 126.402 16.2559 126.402 11.7866C126.402 7.39483 129.274 5.09561 132.934 5.12144C134.611 5.12144 136.213 5.92229 136.924 7.18816ZM133.214 7.93758C131.155 7.93758 129.503 9.35844 129.503 11.7868C129.503 14.2152 131.155 15.6619 133.214 15.6619C138.094 15.6619 138.094 7.93758 133.214 7.93758Z"/>
</svg>
