<?xml version="1.0" standalone="no"?>
<!DOCTYPE svg PUBLIC "-//W3C//DTD SVG 20010904//EN"
 "http://www.w3.org/TR/2001/REC-SVG-20010904/DTD/svg10.dtd">
<svg version="1.0" xmlns="http://www.w3.org/2000/svg"
 width="700.000000pt" height="700.000000pt" viewBox="0 0 700.000000 700.000000"
 preserveAspectRatio="xMidYMid meet">
<metadata>
Created by potrace 1.11, written by Peter Selinger 2001-2013
</metadata>
<g transform="translate(0.000000,700.000000) scale(0.100000,-0.100000)"
fill="#000000" stroke="none">
<path d="M675 6985 c-182 -35 -330 -117 -456 -253 -98 -106 -154 -211 -196
-363 -17 -60 -18 -221 -18 -2869 0 -2648 1 -2809 18 -2869 45 -165 102 -265
217 -382 129 -131 282 -211 460 -239 90 -14 5511 -14 5598 0 179 29 331 107
458 234 129 129 209 287 234 462 8 57 10 842 8 2844 -3 2621 -4 2768 -21 2824
-52 173 -105 264 -222 381 -117 117 -208 170 -381 222 -56 17 -202 18 -2844
20 -2280 1 -2798 -1 -2855 -12z m3255 -965 c590 -51 1035 -218 1443 -543 l88
-70 -29 -31 c-16 -17 -167 -190 -336 -383 -169 -194 -311 -353 -316 -353 -5 0
-32 20 -61 45 -130 110 -337 225 -504 280 -432 140 -1082 114 -1347 -54 -150
-95 -218 -247 -184 -410 19 -92 50 -144 122 -210 147 -135 356 -192 834 -231
453 -37 678 -72 934 -147 617 -179 965 -511 1078 -1028 29 -134 36 -438 13
-577 -78 -470 -383 -856 -857 -1083 -152 -73 -254 -109 -434 -155 -288 -74
-387 -84 -824 -85 -415 0 -536 9 -802 61 -518 101 -971 334 -1355 701 l-83 78
291 405 c159 223 294 411 298 419 7 12 25 0 82 -53 273 -252 771 -469 1299
-566 164 -30 415 -38 540 -16 235 41 401 117 524 240 101 102 141 204 134 345
-7 148 -72 247 -207 319 -150 81 -327 118 -693 147 -331 26 -562 60 -780 115
-766 193 -1194 568 -1295 1134 -32 180 -18 434 34 616 66 231 243 484 450 643
300 230 728 386 1208 441 144 16 574 20 735 6z"/>
</g>
</svg>
