<svg width="63" height="69" viewBox="0 0 63 69" fill="none" xmlns="http://www.w3.org/2000/svg">
<path d="M59.6892 61.2318L62.9843 8.30912C63.1577 5.61716 61.8859 3.09703 59.6314 1.60787C57.3769 0.1187 54.5443 -0.0531267 52.1163 1.14966L4.19315 24.8618C0.782458 26.5228 -0.77837 30.1884 0.377798 33.7968C1.53397 37.4051 4.94466 39.4671 8.70221 38.9516L35.2941 34.9996C36.6237 34.7705 37.8954 35.6296 38.2423 36.9469L44.8903 62.721C45.584 65.5275 47.7229 67.5321 50.3821 68.1622C51.1914 68.334 52.0585 68.3913 52.9256 68.334C56.6832 67.8758 59.458 65.012 59.6892 61.2318Z" fill="white"/>
</svg>
