<svg width="444" height="389" viewBox="0 0 444 389" fill="none" xmlns="http://www.w3.org/2000/svg">
<path d="M136.173 121.547C135.822 122.947 135.471 124.172 135.12 125.572C134.417 128.371 133.715 130.996 133.188 133.795C133.013 134.845 132.661 136.07 132.486 137.12C82.4409 137.12 38.3664 137.12 34.5033 137.12C15.1878 137.12 8.16392 163.541 8.16392 163.541C3.24724 180.164 0.613273 197.836 0.613274 216.383C0.613274 225.832 1.31568 235.28 2.72045 244.204C2.89604 244.904 2.89601 245.604 3.07161 246.304C3.2472 247.004 3.24722 247.704 3.42282 248.403C3.59841 249.103 3.59844 249.803 3.77403 250.328C3.94963 251.028 3.9496 251.728 4.12519 252.428C4.30079 253.128 4.30081 253.653 4.47641 254.353C4.652 255.052 4.82756 255.752 4.82756 256.452C5.00316 257.152 5.17878 257.677 5.17878 258.377C5.35437 259.077 5.52995 259.777 5.70554 260.302C5.88114 261.002 6.05677 261.527 6.23236 262.226C6.40796 262.926 6.58353 263.626 6.75913 264.151C6.93473 264.851 7.11035 265.376 7.28595 266.076C7.46155 266.776 7.63712 267.301 7.81272 268.001C7.98831 268.7 8.16389 269.225 8.33948 269.925C8.51508 270.625 8.6907 271.15 8.8663 271.85C9.0419 272.55 9.21748 273.075 9.56867 273.775C9.74427 274.475 9.91984 275 10.0954 275.699C10.271 276.399 10.6223 277.099 10.7979 277.799C11.1491 278.674 11.3247 279.374 11.6758 280.249C12.027 281.299 12.3782 282.173 12.7294 283.048C12.905 283.573 13.2562 284.273 13.4318 284.798C13.6074 285.498 13.9586 286.023 14.1342 286.723C14.3098 287.248 14.661 287.948 14.8366 288.473C15.0121 288.997 15.3633 289.697 15.5389 290.222C15.7145 290.747 16.0657 291.447 16.4169 291.972C16.7681 292.497 16.9437 293.197 17.2949 293.722C17.6461 294.247 17.8217 294.947 18.1729 295.472C18.524 295.996 18.6996 296.696 19.0508 297.221C19.402 297.746 19.5776 298.446 19.9288 298.971C20.28 299.496 20.4556 300.196 20.8068 300.721C21.158 301.246 21.3336 301.771 21.6848 302.47C22.036 302.995 22.3872 303.695 22.5628 304.22C22.9139 304.745 23.0895 305.27 23.4407 305.795C23.7919 306.32 24.1431 307.02 24.4943 307.545C24.8455 308.07 25.1967 308.595 25.3723 309.12C25.7235 309.644 26.0747 310.344 26.4259 310.869C26.7771 311.394 26.9527 311.919 27.3039 312.444C27.8307 313.144 28.1818 313.844 28.7086 314.544C29.0598 315.244 29.5866 315.769 29.9378 316.468C30.4646 317.168 30.9914 318.043 31.5181 318.743C31.8693 319.268 32.2205 319.618 32.3961 320.143C32.7473 320.668 33.2741 321.368 33.6253 321.893C33.9765 322.418 34.3277 322.767 34.6789 323.292C35.0301 323.817 35.5569 324.342 35.9081 324.867C36.2592 325.392 36.6104 325.742 36.9616 326.267C37.3128 326.792 37.8396 327.317 38.1908 327.842C38.542 328.367 38.8932 328.717 39.2444 329.242C39.5955 329.766 40.1224 330.291 40.4736 330.816C40.8247 331.341 41.1759 331.691 41.7027 332.216C42.0539 332.741 42.5807 333.266 42.9319 333.791C43.2831 334.316 43.6343 334.666 44.1611 335.191C44.6879 335.716 45.039 336.241 45.5658 336.765C45.917 337.115 46.2682 337.64 46.795 337.99C47.3218 338.515 47.8486 339.04 48.1998 339.565C48.551 339.915 48.9021 340.44 49.2533 340.79C49.7801 341.315 50.3069 341.84 50.8337 342.365C51.1849 342.715 51.5361 343.064 51.8873 343.414C52.7653 344.289 53.6432 345.164 54.5212 346.039C54.6968 346.214 55.048 346.389 55.2236 346.739C55.926 347.439 56.6284 347.964 57.3308 348.664C57.682 349.014 58.0331 349.364 58.3843 349.714C58.9111 350.238 59.4379 350.763 60.1403 351.288C60.4914 351.638 61.0183 351.988 61.3694 352.338C61.8962 352.863 62.423 353.213 62.9498 353.738C63.301 354.088 63.8278 354.438 64.179 354.788C64.7058 355.313 65.2326 355.663 65.7593 356.013C66.2861 356.363 66.6373 356.712 67.1641 357.062C67.6909 357.412 68.2177 357.937 68.7445 358.287C69.2713 358.637 69.6224 358.987 70.1492 359.337C70.676 359.687 71.2028 360.212 71.9052 360.562C72.432 360.912 72.7832 361.262 73.3099 361.437C73.8367 361.787 74.5391 362.312 75.0659 362.662C75.4171 363.012 75.9439 363.187 76.2951 363.536C76.9975 363.886 77.5243 364.411 78.2267 364.761C78.5779 364.936 79.1046 365.286 79.4558 365.461C80.1582 365.986 81.0362 366.336 81.7386 366.861C82.0898 367.036 82.2654 367.211 82.6166 367.386C83.6701 368.086 84.7237 368.611 85.7773 369.311C86.1284 369.486 86.304 369.661 86.6552 369.836C87.5332 370.36 88.2356 370.71 89.1136 371.235C89.4648 371.41 89.9916 371.585 90.3428 371.935C91.0451 372.285 91.7475 372.635 92.4499 372.985C92.9767 373.16 93.3279 373.51 93.8547 373.685C94.5571 374.035 95.2595 374.385 95.7862 374.56C96.313 374.735 96.6642 375.085 97.191 375.26C97.8934 375.61 98.4202 375.785 99.1225 376.135C99.6493 376.31 100.176 376.485 100.527 376.835C101.23 377.184 101.932 377.359 102.459 377.709C102.986 377.884 103.512 378.059 103.864 378.234C104.566 378.584 105.268 378.759 105.971 378.934C106.498 379.109 107.024 379.284 107.376 379.459C108.078 379.634 108.78 379.984 109.483 380.159C110.009 380.334 110.361 380.509 110.887 380.684C111.59 380.859 112.468 381.209 113.17 381.384C113.521 381.559 114.048 381.734 114.399 381.734C115.453 382.084 116.331 382.259 117.385 382.609C117.56 382.609 117.736 382.784 117.911 382.784C119.14 383.134 120.37 383.484 121.599 383.833C121.95 383.833 122.301 384.008 122.652 384.008C123.53 384.183 124.408 384.358 125.286 384.708C125.813 384.883 126.164 384.883 126.691 385.058C127.393 385.233 128.271 385.408 128.974 385.583C129.501 385.758 130.027 385.758 130.554 385.933C131.257 386.108 131.959 386.283 132.837 386.283C133.364 386.458 133.891 386.458 134.417 386.458C135.12 386.633 135.822 386.633 136.524 386.808C137.051 386.808 137.578 386.983 138.105 386.983C138.807 387.158 139.51 387.158 140.388 387.333C140.914 387.333 141.441 387.508 141.968 387.508C142.67 387.508 143.548 387.683 144.251 387.683C144.777 387.683 145.304 387.858 145.831 387.858C146.533 387.858 147.411 388.033 148.114 388.033C148.641 388.033 149.167 388.033 149.694 388.208C150.572 388.208 151.45 388.208 152.328 388.383C152.679 388.383 153.206 388.383 153.557 388.383C154.786 388.383 156.191 388.383 157.42 388.383C228.361 388.383 288.239 337.64 308.257 267.826C308.608 266.426 308.96 265.201 309.311 263.801C310.013 261.002 310.715 258.377 311.242 255.577C311.418 254.528 311.769 253.303 311.945 252.253C361.989 252.253 406.064 252.253 409.927 252.253C429.243 252.253 436.267 225.832 436.267 225.832C441.183 209.209 443.817 191.537 443.817 172.99C443.817 163.541 443.115 154.092 441.71 145.169C441.534 144.469 441.534 143.769 441.359 143.069C441.183 142.369 441.183 141.669 441.008 140.969C440.832 140.269 440.832 139.569 440.656 139.045C440.481 138.345 440.481 137.645 440.305 136.945C440.13 136.245 440.13 135.72 439.954 135.02C439.778 134.32 439.603 133.62 439.603 132.92C439.427 132.221 439.252 131.696 439.252 130.996C439.076 130.296 438.901 129.596 438.725 129.071C438.549 128.371 438.374 127.846 438.198 127.146C438.022 126.446 437.847 125.747 437.671 125.222C437.496 124.522 437.32 123.997 437.144 123.297C436.969 122.597 436.793 122.072 436.618 121.372C436.442 120.672 436.267 120.147 436.091 119.447C435.915 118.748 435.74 118.223 435.564 117.523C435.389 116.823 435.213 116.298 434.862 115.598C434.686 114.898 434.511 114.373 434.335 113.673C434.159 112.973 433.808 112.274 433.633 111.574C433.281 110.699 433.106 109.999 432.755 109.124C432.403 108.074 432.052 107.199 431.701 106.324C431.525 105.799 431.174 105.1 430.999 104.575C430.823 103.875 430.472 103.35 430.296 102.65C430.121 102.125 429.769 101.425 429.594 100.9C429.418 100.375 429.067 99.6754 428.891 99.1505C428.716 98.6255 428.365 97.9257 428.013 97.4008C427.662 96.8758 427.487 96.1759 427.136 95.651C426.784 95.126 426.609 94.4262 426.258 93.9012C425.906 93.3763 425.731 92.6764 425.38 92.1515C425.028 91.6266 424.853 90.9267 424.502 90.4018C424.15 89.8768 423.975 89.1769 423.624 88.652C423.272 88.1271 423.097 87.6021 422.746 86.9023C422.394 86.3773 422.043 85.6774 421.868 85.1525C421.516 84.6276 421.341 84.1027 420.99 83.5777C420.638 83.0528 420.287 82.3529 419.936 81.828C419.585 81.303 419.234 80.7782 419.058 80.2533C418.707 79.7283 418.356 79.0285 418.005 78.5035C417.653 77.9786 417.478 77.4537 417.127 76.9287C416.6 76.2288 416.249 75.5289 415.722 74.829C415.371 74.1291 414.844 73.6042 414.493 72.9043C413.966 72.2044 413.439 71.3296 412.912 70.6297C412.561 70.1047 412.21 69.7548 412.034 69.2298C411.683 68.7049 411.156 68.005 410.805 67.48C410.454 66.9551 410.103 66.6052 409.752 66.0803C409.4 65.5554 408.874 65.0305 408.522 64.5056C408.171 63.9806 407.82 63.6306 407.469 63.1057C407.118 62.5808 406.591 62.0559 406.24 61.531C405.888 61.0061 405.537 60.6562 405.186 60.1312C404.835 59.6063 404.308 59.0814 403.957 58.5564C403.606 58.0315 403.255 57.6816 402.728 57.1566C402.377 56.6317 401.85 56.1067 401.499 55.5818C401.147 55.0569 400.796 54.707 400.269 54.1821C399.743 53.6572 399.391 53.1322 398.865 52.6073C398.513 52.2573 398.162 51.7325 397.635 51.3825C397.109 50.8576 396.582 50.3326 396.231 49.8077C395.88 49.4577 395.528 48.9328 395.177 48.5829C394.65 48.058 394.124 47.5331 393.597 47.0082C393.246 46.6582 392.894 46.3082 392.543 45.9583C391.665 45.0834 390.787 44.2085 389.909 43.3337C389.734 43.1587 389.382 42.9838 389.207 42.6338C388.504 41.9339 387.802 41.4089 387.1 40.709C386.749 40.3591 386.397 40.0092 386.046 39.6592C385.519 39.1343 384.993 38.6093 384.29 38.0844C383.939 37.7345 383.412 37.3846 383.061 37.0346C382.534 36.5097 382.007 36.1598 381.481 35.6348C381.129 35.2849 380.603 34.9349 380.251 34.5849C379.725 34.06 379.198 33.7101 378.671 33.3601C378.144 33.0102 377.793 32.6603 377.266 32.3103C376.74 31.9604 376.213 31.4354 375.686 31.0855C375.159 30.7355 374.808 30.3856 374.281 30.0356C373.754 29.6857 373.228 29.1607 372.525 28.8108C371.998 28.4608 371.647 28.1109 371.121 27.9359C370.594 27.586 369.891 27.0611 369.365 26.7111C369.013 26.3612 368.487 26.1862 368.135 25.8362C367.433 25.4863 366.906 24.9613 366.204 24.6114C365.853 24.4364 365.326 24.0865 364.975 23.9116C364.272 23.3866 363.394 23.0367 362.692 22.5118C362.341 22.3368 362.165 22.1618 361.814 21.9868C360.76 21.2869 359.707 20.762 358.653 20.0621C358.302 19.8871 358.126 19.7122 357.775 19.5372C356.897 19.0123 356.195 18.6624 355.317 18.1375C354.966 17.9625 354.439 17.7875 354.088 17.4375C353.385 17.0876 352.683 16.7377 351.981 16.3877C351.454 16.2127 351.103 15.8627 350.576 15.6878C349.873 15.3378 349.171 14.9878 348.644 14.8129C348.117 14.6379 347.766 14.288 347.239 14.113C346.537 13.763 346.01 13.588 345.308 13.2381C344.781 13.0631 344.254 12.8882 343.903 12.5382C343.201 12.1883 342.498 12.0133 341.972 11.6634C341.445 11.4884 340.918 11.3135 340.567 11.1385C339.864 10.7885 339.162 10.6135 338.46 10.4385C337.933 10.2635 337.406 10.0886 337.055 9.91364C336.353 9.73867 335.65 9.38867 334.948 9.21369C334.421 9.03872 334.07 8.86373 333.543 8.68876C332.841 8.51379 331.963 8.16384 331.26 7.98887C330.909 7.8139 330.382 7.63902 330.031 7.63902C328.977 7.28907 328.099 7.11406 327.046 6.76411C326.87 6.76411 326.695 6.58909 326.519 6.58909C325.29 6.23914 324.061 5.88923 322.832 5.53928C322.48 5.53928 322.129 5.36427 321.778 5.36427C320.9 5.18929 320.022 5.01436 319.144 4.66441C318.617 4.48943 318.266 4.48941 317.739 4.31443C317.037 4.13946 316.159 3.9645 315.457 3.78953C314.93 3.61456 314.403 3.61456 313.876 3.43958C313.174 3.26461 312.471 3.08961 311.593 3.08961C311.067 2.91463 310.54 2.91468 310.013 2.91468C309.311 2.73971 308.608 2.73968 307.906 2.56471C307.379 2.56471 306.852 2.38975 306.326 2.38975C305.623 2.21478 304.921 2.21478 304.043 2.0398C303.516 2.0398 302.989 1.86476 302.463 1.86476C301.76 1.86476 300.882 1.68977 300.18 1.68977C299.653 1.68977 299.126 1.5149 298.599 1.5149C297.897 1.5149 297.019 1.33985 296.317 1.33985C295.79 1.33985 295.263 1.33993 294.736 1.16496C293.858 1.16496 292.98 1.16485 292.102 0.989879C291.751 0.989879 291.224 0.989879 290.873 0.989879C289.644 0.989879 288.239 0.989879 287.01 0.989879C216.245 0.989882 156.191 51.5575 136.173 121.547Z" fill="url(#paint0_linear)"/>
<defs>
<linearGradient id="paint0_linear" x1="99.8156" y1="-22.3892" x2="360.294" y2="279.941" gradientUnits="userSpaceOnUse">
<stop stop-color="#57E2B7"/>
<stop offset="0.614306" stop-color="#11BC87"/>
</linearGradient>
</defs>
</svg>
