<svg width="77" height="66" viewBox="0 0 77 66" fill="none" xmlns="http://www.w3.org/2000/svg">
<path d="M71.8997 8.34909C64.5392 -1.08612 50.8334 -2.77098 41.3577 4.55816C29.0902 14.0776 3.62443 53.2506 2.01695 55.6936C-0.0981423 58.7264 -0.774972 60.9167 1.08631 63.2755C2.9476 65.6343 5.1473 65.4658 8.70066 64.2022C11.4926 63.1912 55.9096 48.196 68.1772 38.7608C77.5682 31.3474 79.3449 17.7843 71.8997 8.34909Z" fill="#FF5A45"/>
</svg>
