<svg width="100" height="100" viewBox="0 0 100 100" fill="#FFC607" xmlns="http://www.w3.org/2000/svg">
    <path d="M97.175 31.2222L97.2209 31.1763C98.9875 29.593 100 27.347 100 25.001C100 20.4051 96.2625 16.6673 91.6666 16.6673H85.8416C85.3875 16.205 84.5709 15.009 83.8959 14.0256C80.5416 9.12537 74.3 0 62.5 0C46.1875 0 37.5 13.3089 37.5 22.9175C37.5 29.5262 41.95 36.8849 44.5291 40.5892C42.5416 41.106 39.4375 41.6683 35.4166 41.6683C27.6125 41.6683 21.9209 40.8601 14.1957 30.0387C13.875 29.593 13.3834 29.2805 12.8332 29.1928C12.2832 29.1055 11.725 29.2387 11.275 29.5637C4.5041 34.4848 0 40.5517 0 54.1647C0 67.9487 5.2791 100 54.1666 100C95.8082 100 97.9166 72.2321 97.9166 66.6652C97.9166 56.4607 88.4875 44.6143 84.4875 40.0434C88.0041 37.8766 94.7666 33.5848 97.175 31.2222"/>
</svg>
