<svg width="185" height="185" viewBox="0 0 185 185" fill="none" xmlns="http://www.w3.org/2000/svg">
<path fill-rule="evenodd" clip-rule="evenodd" d="M92.4995 57.6617C73.29 57.6617 57.6619 73.2898 57.6619 92.4993C57.6619 111.709 73.29 127.337 92.4995 127.337C111.709 127.337 127.337 111.709 127.337 92.4993C127.337 73.2898 111.709 57.6617 92.4995 57.6617ZM92.4996 185C41.495 185 0 143.504 0 92.5004C0 41.4958 41.495 0 92.4996 0C143.504 0 185 41.4958 185 92.5004C185 143.504 143.504 185 92.4996 185Z" fill="#FFC607"/>
</svg>
