<svg width="186" height="30" viewBox="0 0 186 30" fill="none" xmlns="http://www.w3.org/2000/svg">
<path d="M24.2325 18.8273V17.8663V16.571V10.429V9.13372L25.1934 7.04459L29.9981 3.07524C30.6387 2.53206 31.5997 2.99168 31.5997 3.86911V22.922C31.5997 23.7994 30.5987 24.259 29.9581 23.7158L24.2325 18.8273Z" fill="#00AC47"/>
<path d="M8.29694 0.150391L0.529358 8.25622H8.29694V0.150391Z" fill="#EA4335"/>
<path d="M8.29694 8.29785H0.529358V18.8689H8.29694V8.29785Z" fill="#2684FC"/>
<path d="M0.529358 18.8271V24.2589C0.529358 25.7631 1.69049 26.9748 3.1319 26.9748H8.33697V18.8689H0.529358V18.8271Z" fill="#0066DA"/>
<path d="M25.2335 2.82448C25.2335 1.36209 24.0723 0.150391 22.711 0.150391H17.626H8.29694V8.25622H17.8262V13.5626L25.2335 13.3119V2.82448Z" fill="#FFBA00"/>
<path d="M17.8262 18.8271H8.29694V26.9329H17.586H22.671C24.0723 26.9329 25.1934 25.7212 25.1934 24.2588V13.5625H17.8262V18.8271Z" fill="#00AC47"/>
<path d="M25.2335 7.08618V19.6627L17.8262 13.5625L25.2335 7.08618Z" fill="#00832D"/>
<path d="M134.38 23.3813H132.098V4.78809H134.38L140.586 16.1112H140.666L146.872 4.78809H149.154V23.3813H146.872V12.3507L146.952 9.21705H146.872L141.307 19.412H139.945L134.38 9.21705H134.3L134.38 12.3507V23.3813Z" fill="#5F6368"/>
<path d="M157.843 23.7993C156.041 23.7993 154.56 23.1726 153.398 21.8773C152.237 20.5821 151.637 18.9943 151.637 17.0305C151.637 15.1085 152.197 13.479 153.318 12.1838C154.439 10.8885 155.881 10.22 157.643 10.22C159.444 10.22 160.886 10.8467 161.967 12.0584C163.048 13.2701 163.568 14.9832 163.568 17.1977L163.528 17.4484H153.959C153.999 18.7018 154.399 19.7046 155.16 20.4567C155.921 21.2088 156.842 21.5849 157.883 21.5849C159.324 21.5849 160.485 20.8328 161.326 19.2868L163.368 20.3314C162.808 21.4177 162.047 22.2534 161.086 22.8383C160.165 23.5069 159.084 23.7993 157.843 23.7993ZM154.199 15.4846H161.166C161.086 14.6071 160.766 13.8551 160.125 13.3119C159.524 12.7269 158.684 12.4345 157.643 12.4345C156.762 12.4345 156.041 12.7269 155.4 13.2701C154.8 13.8133 154.399 14.5654 154.199 15.4846Z" fill="#5F6368"/>
<path d="M171.296 23.7993C169.494 23.7993 168.013 23.1726 166.852 21.8773C165.691 20.5821 165.09 18.9943 165.09 17.0305C165.09 15.1085 165.651 13.479 166.772 12.1838C167.893 10.8885 169.334 10.22 171.096 10.22C172.898 10.22 174.339 10.8467 175.42 12.0584C176.501 13.2701 177.022 14.9832 177.022 17.1977L176.982 17.4484H167.412C167.452 18.7018 167.853 19.7046 168.613 20.4567C169.374 21.2088 170.295 21.5849 171.336 21.5849C172.777 21.5849 173.939 20.8328 174.779 19.2868L176.821 20.3314C176.261 21.4177 175.5 22.2534 174.539 22.8383C173.658 23.5069 172.537 23.7993 171.296 23.7993ZM167.652 15.4846H174.659C174.579 14.6071 174.259 13.8551 173.618 13.3119C173.018 12.7269 172.177 12.4345 171.136 12.4345C170.255 12.4345 169.534 12.7269 168.894 13.2701C168.253 13.8133 167.853 14.5654 167.652 15.4846Z" fill="#5F6368"/>
<path d="M183.668 23.5903C182.667 23.5903 181.826 23.2561 181.186 22.6293C180.545 22.0026 180.225 21.0834 180.185 19.9553V12.8522H178.063V10.6377H180.185V6.75195H182.467V10.6377H185.47V12.8104H182.467V19.1614C182.467 19.997 182.627 20.582 182.947 20.9163C183.268 21.2087 183.628 21.3759 184.028 21.3759C184.229 21.3759 184.389 21.3759 184.549 21.3341C184.749 21.2923 184.909 21.2087 185.029 21.167L185.75 23.2979C185.149 23.465 184.429 23.5903 183.668 23.5903Z" fill="#5F6368"/>
<path d="M56.5841 15.5263V12.6851H65.713C65.7931 13.1865 65.8731 13.7715 65.8731 14.44C65.8731 16.5709 65.3126 19.2032 63.5108 21.0834C61.7491 23.0054 59.5069 24.0082 56.544 24.0082C51.0587 24.0082 46.4542 19.3285 46.4542 13.6043C46.4542 7.8801 51.0587 3.20044 56.544 3.20044C59.587 3.20044 61.7491 4.45392 63.3507 6.08345L61.4288 8.08901C60.2677 6.96088 58.6661 6.04166 56.504 6.04166C52.5001 6.04166 49.377 9.42606 49.377 13.6043C49.377 17.7826 52.5001 21.167 56.504 21.167C59.1065 21.167 60.588 20.0806 61.5489 19.0778C62.3096 18.284 62.8302 17.1141 63.0304 15.5263H56.5841Z" fill="#5F6368"/>
<path d="M79.7266 17.2812C79.7266 21.1252 76.8438 23.9664 73.2803 23.9664C69.7169 23.9664 66.834 21.1252 66.834 17.2812C66.834 13.3954 69.7169 10.5959 73.2803 10.5959C76.8038 10.5959 79.7266 13.3954 79.7266 17.2812ZM76.8839 17.2812C76.8839 14.8578 75.2022 13.2283 73.2803 13.2283C71.3184 13.2283 69.6768 14.8578 69.6768 17.2812C69.6768 19.6628 71.3585 21.3341 73.2803 21.3341C75.2022 21.3341 76.8839 19.6628 76.8839 17.2812Z" fill="#5F6368"/>
<path d="M93.7403 17.2812C93.7403 21.1252 90.8575 23.9664 87.294 23.9664C83.7305 23.9664 80.8477 21.1252 80.8477 17.2812C80.8477 13.3954 83.7305 10.5959 87.294 10.5959C90.8575 10.5959 93.7403 13.3954 93.7403 17.2812ZM90.9376 17.2812C90.9376 14.8578 89.2559 13.2283 87.3341 13.2283C85.3721 13.2283 83.7305 14.8578 83.7305 17.2812C83.7305 19.6628 85.4122 21.3341 87.3341 21.3341C89.2559 21.3341 90.9376 19.6628 90.9376 17.2812Z" fill="#5F6368"/>
<path d="M107.233 10.972V23.0054C107.233 27.9358 104.431 29.9831 101.148 29.9831C98.0245 29.9831 96.1827 27.8104 95.462 26.0137L97.9043 24.9692C98.3448 26.0555 99.4258 27.3508 101.148 27.3508C103.27 27.3508 104.591 25.972 104.591 23.4232V22.4622H104.511C103.87 23.2561 102.669 23.9664 101.148 23.9664C97.9444 23.9664 94.9815 21.0416 94.9815 17.2812C94.9815 13.5208 97.9043 10.5542 101.148 10.5542C102.669 10.5542 103.91 11.2645 104.511 12.0584H104.591V10.972H107.233ZM104.751 17.2812C104.751 14.9414 103.23 13.1865 101.308 13.1865C99.3457 13.1865 97.7442 14.8996 97.7442 17.2812C97.7442 19.621 99.3858 21.3341 101.308 21.3341C103.23 21.3341 104.751 19.621 104.751 17.2812Z" fill="#5F6368"/>
<path d="M111.998 3.95264V23.5487H109.195V3.95264H111.998Z" fill="#5F6368"/>
<path d="M122.889 19.4956L125.091 20.9998C124.37 22.0862 122.689 23.9664 119.766 23.9664C116.122 23.9664 113.4 21.0416 113.4 17.2812C113.4 13.3118 116.162 10.5959 119.445 10.5959C122.769 10.5959 124.41 13.3536 124.931 14.8578L125.211 15.6099L116.643 19.3285C117.283 20.6656 118.324 21.3759 119.766 21.3759C121.127 21.3341 122.128 20.582 122.889 19.4956ZM116.122 17.0723L121.848 14.6071C121.527 13.7714 120.567 13.1865 119.485 13.1865C118.044 13.1447 116.082 14.4817 116.122 17.0723Z" fill="#5F6368"/>
</svg>
