<svg width="167" height="30" viewBox="0 0 167 30" fill="none" xmlns="http://www.w3.org/2000/svg">
<path d="M113.711 21.9639H128.693V18.5915H118.819C120.181 13.0573 128.523 11.8467 128.523 5.70715C128.523 2.42122 126.31 0 121.628 0C118.733 0 116.18 0.86472 114.477 1.72944L115.499 4.84243C117.031 4.06418 118.819 3.37241 121.032 3.37241C122.735 3.37241 124.352 4.15066 124.352 6.13951C124.352 10.6361 114.562 10.9819 113.711 21.9639ZM129.119 16.6026H138.739V21.9639H142.569V16.6026H145.804V13.3167H142.569V0H139.76L129.119 14.0085V16.6026ZM133.461 13.4896L138.909 6.05304C138.909 6.65835 138.739 8.56073 138.739 10.2902V13.4032H136.185C135.419 13.4032 133.971 13.4896 133.461 13.4896Z" fill="#005893"/>
<path d="M4.07134 18.6852V11.8539H5.68877C7.13595 11.8539 8.32775 12.0269 9.17903 12.5457C10.0303 13.0646 10.5411 13.9293 10.5411 15.3128C10.5411 17.6476 9.17903 18.6852 5.94416 18.6852H4.07134ZM0.155441 21.9712H5.85903C12.2436 21.9712 14.5421 19.1176 14.5421 15.1399C14.5421 12.4592 13.4354 10.6433 11.4775 9.60567C9.94518 8.74095 7.98724 8.48154 5.60365 8.48154H4.07134V3.29321H12.6693L13.6908 0.09375H0.0703125V21.9712H0.155441ZM17.1811 21.9712H20.9267L25.779 14.8805C26.7154 13.5834 27.3965 12.2863 27.8221 11.5945H27.9072C27.8221 12.5457 27.737 13.7563 27.737 14.9669V21.8847H31.5677V6.31974H27.8221L22.9698 13.4104C22.1185 14.7075 21.3524 16.0046 20.9267 16.6964H20.8416C20.9267 15.7452 21.0119 14.5346 21.0119 13.324V6.40621H17.1811V21.9712ZM38.1226 21.9712H42.0385V9.60567H46.6354L47.657 6.31974H33.4406V9.60567H38.1226V21.9712ZM49.019 29.8401H52.8498V21.9712C53.616 22.2306 54.3821 22.3171 55.2334 22.3171C60.0857 22.3171 63.2354 18.9447 63.2354 14.1022C63.2354 9.08684 60.3411 5.88737 54.8078 5.88737C52.6795 5.88737 50.6365 6.31974 48.9339 6.83857V29.8401H49.019ZM52.8498 18.5988V9.43273C53.4457 9.25978 53.9565 9.17331 54.6375 9.17331C57.4467 9.17331 59.2344 10.7298 59.2344 14.1022C59.2344 17.1287 57.7872 19.0311 54.8929 19.0311C54.1267 19.0311 53.5308 18.8582 52.8498 18.5988ZM65.5339 21.9712H69.2795L74.1319 14.8805C75.0683 13.5834 75.7493 12.2863 76.1749 11.5945H76.2601C76.1749 12.5457 76.0898 13.7563 76.0898 14.9669V21.8847H79.9206V6.31974H76.1749L71.3226 13.4104C70.4713 14.7075 69.7052 16.0046 69.2795 16.6964H69.1944C69.2795 15.7452 69.3647 14.5346 69.3647 13.324V6.40621H65.5339V21.9712ZM82.9852 21.9712H86.9011V15.4858H89.1995C89.6252 15.4858 90.0508 15.9181 90.5616 16.9558L92.5195 21.9712H96.6908L93.8816 16.0046C93.3708 14.9669 92.8601 14.3616 92.0939 14.1022V14.0157C93.3708 13.2375 93.5411 10.9892 94.3072 9.86509C94.5626 9.5192 94.9031 9.34626 95.4139 9.34626C95.6693 9.34626 96.0098 9.34626 96.2652 9.5192V6.14679C95.8395 5.97385 95.0734 5.88737 94.6478 5.88737C93.2857 5.88737 92.4344 6.40621 91.8385 7.27093C90.5616 9.17331 90.5616 12.4592 88.6888 12.4592H86.9011V6.31974H82.9852V21.9712ZM105.374 22.3171C107.502 22.3171 109.46 21.6253 110.652 20.7606L109.545 18.0799C108.439 18.6852 107.417 19.1176 105.97 19.1176C103.331 19.1176 101.628 17.3882 101.628 14.1887C101.628 11.3351 103.331 9.08684 106.225 9.08684C107.757 9.08684 108.864 9.5192 109.971 10.2974V6.92504C109.12 6.40621 107.757 5.88737 105.8 5.88737C101.203 5.88737 97.6272 9.34626 97.6272 14.2752C97.6272 18.7717 100.351 22.3171 105.374 22.3171Z" fill="#0BBBEF"/>
<path fill-rule="evenodd" clip-rule="evenodd" d="M149.109 8.90854C149.109 4.19608 152.897 0.328125 157.57 0.328125C162.243 0.328125 166.031 4.19608 166.031 8.90854C166.031 13.621 162.243 17.4889 157.57 17.4889C152.882 17.4889 149.204 13.6085 149.11 8.9263L149.109 8.91742V8.90854ZM150.878 8.89967C150.959 12.6876 153.919 15.7201 157.57 15.7201C161.24 15.7201 164.262 12.6703 164.262 8.90854C164.262 5.14673 161.24 2.09693 157.57 2.09693C153.903 2.09693 150.883 5.14194 150.878 8.89967Z" fill="#005893"/>
<path d="M162.34 8.9051H158.169V4.66797H157.062V10.0292H162.34V8.9051Z" fill="#005893"/>
</svg>
